[01:05:44] *** Quits: f10 (~flo@ ) (Ping timeout: 240 seconds)
[01:12:37] <nurupo> oranges: you will have to carry this weight forever
[01:22:07] *** Parts: albel727 (~albel727@ ) ()
[01:22:43] *** Joins: albel727 (~albel727@ )
[01:23:37] *** Joins: f10 (~flo@ )
[02:19:44] *** Quits: e0f (~eof@ ) (Ping timeout: 240 seconds)
[02:21:20] *** Joins: e0f (eof@ )
[02:56:43] *** Quits: e0f (eof@ ) (Quit: end of file reached)
[03:06:26] *** Joins: e0f (eof@ )
[03:11:33] *** Quits: e0f (eof@ ) (Quit: end of file reached)
[03:13:02] *** Joins: e0f (eof@ )
[03:17:17] *** Quits: e0f (eof@ ) (Quit: end of file reached)
[04:07:07] *** Quits: f10 (~flo@ ) (Ping timeout: 240 seconds)
[04:24:39] *** Joins: e0f (eof@ )
[04:25:09] *** Quits: e0f (eof@ ) (Remote host closed the connection)
[04:27:44] *** Joins: e0f (~eof@ )
[04:37:56] *** Quits: albel727 (~albel727@ ) (Ping timeout: 240 seconds)
[04:39:45] *** Joins: albel727 (~albel727@ )
[11:18:29] *** Joins: Franky (1f10fa5b@ )
[11:18:51] <Franky> ok 
[11:23:14] *** Quits: Franky (1f10fa5b@ ) (Ping timeout: 260 seconds)
[11:50:43] *** Joins: f10 (~flo@ )
[12:23:40] *** Joins: cenysor (~cenysor@ )
[12:33:23] *** Quits: LittleVulpix (~Miranda@ ) (Quit: Miranda NG rocks. Trust the Vulpix. http://miranda-ng.org/)
[12:33:46] *** Joins: LittleVulpix (~Miranda@ )
[12:37:00] *** Joins: murray (~murray@ )
[12:40:19] *** Quits: cenysor (~cenysor@ ) (Remote host closed the connection)
[14:02:12] *** Joins: sudden6 (~anonymous@ )
[14:15:14] *** Quits: sudden6 (~anonymous@ ) (Read error: Connection reset by peer)
[14:32:01] *** Joins: sudden6 (~anonymous@ )
[14:42:41] *** Quits: sudden6 (~anonymous@ ) (Ping timeout: 240 seconds)
[15:14:00] *** Quits: cisc (~cisc@ ) (Ping timeout: 255 seconds)
[15:18:56] *** Joins: cisc (~cisc@ )
[15:22:53] *** Joins: lmposter (~lmposter@ )
[15:53:44] *** Quits: murray (~murray@ ) (Quit: Leaving)
[15:53:59] *** Quits: cisc (~cisc@ ) (Quit: Konversation terminated!)
[16:06:48] *** Joins: cenysor (~cenysor@ )
[16:30:41] *** Quits: lmposter (~lmposter@ ) (Read error: Connection reset by peer)
[16:53:12] *** Joins: lmposter (~lmposter@ )
[16:59:48] *** Joins: sudden6 (~anonymous@ )
[17:33:24] *** Joins: vindelschtuffen (~vindelsch@ )
[18:22:34] *** Joins: Kornik (~lmposter@ )
[18:25:33] *** Quits: lmposter (~lmposter@ ) (Ping timeout: 240 seconds)
[18:34:49] *** Joins: murray (~murray@ )
[19:21:21] *** Joins: Achylles (~Achylles@ )
[19:47:13] -qtox-git-spam- [qTox] Diadlo closed pull request #4291: [WIP] Replace Windows build guide with fresh one (master...new-windows-build-man) https://git.io/vSIon
[19:48:32] -qtox-git-spam- [qTox] Diadlo closed pull request #4182: feat: UI to import a list of contacts from a file (master...import_contacts) https://git.io/vD9zR
[20:02:23] -qtox-git-spam- [qTox] Diadlo opened pull request #4577: feat: UI to import a list of contacts from a file (master...feat/importContact) https://git.io/v5efX
[20:12:20] -qtox-git-spam- [qTox] Diadlo closed pull request #4309: chore(build): fixed library downloading on Windows [WIP] (master...fix_win_shell_script) https://git.io/vSZfX
[20:17:34] -qtox-git-spam- [qTox] Diadlo pushed 7 new commits to master: https://git.io/v5eUi
[20:17:34] -qtox-git-spam- qTox/master e19bd67 Diadlo: refactor(group): Move GroupWidget creation out of Group
[20:17:34] -qtox-git-spam- qTox/master a1be4bc Diadlo: refactor(group): Get name from group
[20:17:34] -qtox-git-spam- qTox/master 6c650f8 Diadlo: refactor(widget): Remove using getGroupWidget from Widget
[20:55:53] *** Quits: murray (~murray@ ) (Quit: Leaving)
[21:17:58] *** Quits: Achylles (~Achylles@ ) (Quit: Leaving)
[21:21:59] -qtox-git-spam- [qTox] Diadlo pushed 2 new commits to master: https://git.io/v5eYf
[21:21:59] -qtox-git-spam- qTox/master eb9b897 Vincas Dargis: docs(coding): fix string usage guidelines...
[21:21:59] -qtox-git-spam- qTox/master 12a49b5 Diadlo: Merge pull request #4575...
[21:23:25] *** Joins: cisc (~cisc@ )
[21:53:44] *** Joins: remussatala (4f718f7d@ )
[22:06:21] *** Quits: remussatala (4f718f7d@ ) (Quit: Page closed)
[22:07:33] *** Joins: remussatala (4f718f7d@ )
[22:25:40] *** Quits: cisc (~cisc@ ) (Ping timeout: 240 seconds)
[22:35:31] *** Joins: cisc (~cisc@ )
[23:08:32] *** Quits: f10 (~flo@ ) (Remote host closed the connection)
[23:08:54] *** Joins: f10 (~flo@ )
[23:29:52] *** Quits: GGMethos (methos@ ) (Quit: WeeChat 1.4)
[23:34:38] *** Joins: Methos (~methos@ )
[23:34:56] *** Quits: cenysor (~cenysor@ ) (Remote host closed the connection)
[23:35:02] *** Methos is now known as Guest98617
[23:35:19] *** Quits: Kornik (~lmposter@ ) (Ping timeout: 255 seconds)
[23:37:11] *** Guest98617 is now known as GGMethos
[23:47:10] *** Quits: koshii (~w@ ) (Ping timeout: 260 seconds)
[23:50:40] *** Joins: koshii (~w@ )
