[00:00:39] <oranges> bye
[00:02:45] <sudden6> oops, I think Nocs didn't hear about name highlighting yet :/
[00:03:43] <sudden6> bye
[00:08:05] *** Quits: sudden6 (~anonymous@ ) (Ping timeout: 240 seconds)
[00:10:50] *** Quits: dardevelin (~dardeveli@ ) (Remote host closed the connection)
[00:11:12] *** Joins: dardevelin (~dardeveli@ )
[00:20:58] *** Joins: Achylles (~Achylles@ )
[00:52:39] *** Quits: f10 (~flo@ ) (Ping timeout: 260 seconds)
[01:09:21] *** Joins: mutin-s (~s-mutin@ )
[01:09:29] *** Quits: s-mutin (~s-mutin@ ) (Read error: Connection reset by peer)
[01:19:41] *** Quits: VVD (~VVD@ ) (Read error: Connection reset by peer)
[01:20:06] *** Joins: VVD (~VVD@ )
[01:25:12] *** Quits: VVD (~VVD@ ) (Read error: Connection reset by peer)
[01:26:03] *** Joins: VVD (~VVD@ )
[01:31:27] *** Quits: VVD (~VVD@ ) (Read error: Connection reset by peer)
[01:31:47] *** Joins: VVD (~VVD@ )
[01:39:30] *** Quits: mutin-s (~s-mutin@ ) (Read error: Connection reset by peer)
[01:40:07] *** Joins: mutin-s (~s-mutin@ )
[02:02:25] *** Joins: f10 (~flo@ )
[02:44:23] *** Quits: VVD (~VVD@ ) (Read error: Connection reset by peer)
[02:44:42] *** Joins: VVD (~VVD@ )
[04:10:44] *** Quits: Achylles (~Achylles@ ) (Ping timeout: 260 seconds)
[05:53:06] *** Quits: ben_nabiy (~bennabiy@ ) (Ping timeout: 268 seconds)
[05:55:24] *** Joins: ben_nabiy (~bennabiy@ )
[06:57:22] *** Quits: tux3_ (~user@ ) (Remote host closed the connection)
[08:19:39] *** Quits: mutin-s (~s-mutin@ ) (Quit: Leaving)
[08:24:19] *** Joins: rokups (uid197268@ )
[10:42:28] *** Quits: cisc (~cisc@ ) (Quit: Konversation terminated!)
[11:03:04] *** Joins: genesis (~genesis@ )
[11:19:28] *** Joins: cisc (~cisc@ )
[11:24:05] *** Quits: VVD (~VVD@ ) (Read error: Connection reset by peer)
[11:24:47] *** Joins: VVD (~VVD@ )
[11:27:02] *** Joins: An_ (~An@ )
[12:10:35] *** Joins: sudden6 (~anonymous@ )
[12:44:06] *** Quits: sudden6 (~anonymous@ ) (Ping timeout: 240 seconds)
[13:21:28] *** Joins: sudden6 (~anonymous@ )
[13:38:27] *** Quits: sudden6 (~anonymous@ ) (Ping timeout: 240 seconds)
[13:40:05] *** Quits: VVD (~VVD@ ) (Read error: Connection reset by peer)
[13:41:03] *** Joins: VVD (~VVD@ )
[13:47:45] *** Joins: sudden6 (~anonymous@ )
[13:56:05] *** Quits: sudden6 (~anonymous@ ) (Ping timeout: 240 seconds)
[13:57:09] *** Quits: LittleVulpix (~Miranda@ ) (Quit: Miranda NG rocks. Trust the Vulpix. http://miranda-ng.org/)
[13:57:54] *** Joins: LittleVulpix (~Miranda@ )
[14:07:27] *** Joins: sudden6 (~anonymous@ )
[14:12:11] *** Joins: guest748 (~username@ )
[14:12:57] *** Quits: ben_nabiy (~bennabiy@ ) (Quit: http://www.yellowdeli.com)
[14:21:11] *** Quits: sudden6 (~anonymous@ ) (Ping timeout: 252 seconds)
[14:31:34] *** Quits: LittleVulpix (~Miranda@ ) (Quit: Miranda NG rocks. Trust the Vulpix. http://miranda-ng.org/)
[14:34:54] *** Joins: LittleVulpix (~Miranda@ )
[15:42:41] *** Quits: VVD (~VVD@ ) (Read error: Connection reset by peer)
[15:43:12] *** Joins: VVD (~VVD@ )
[15:48:45] *** Quits: VVD (~VVD@ ) (Read error: Connection reset by peer)
[15:49:46] *** Joins: VVD (~VVD@ )
[16:07:47] *** Quits: VVD (~VVD@ ) (Read error: Connection reset by peer)
[16:08:17] *** Joins: VVD (~VVD@ )
[16:09:08] *** Quits: dardevelin (~dardeveli@ ) (Ping timeout: 255 seconds)
[16:38:08] *** Joins: dardevelin (~dardeveli@ )
[17:06:55] *** Joins: Achylles (~Achylles@ )
[17:25:35] *** Joins: sudden6 (~anonymous@ )
[17:30:10] *** Quits: Achylles (~Achylles@ ) (Ping timeout: 240 seconds)
[17:48:08] *** Quits: An_ (~An@ ) (Quit: Bye.)
[18:10:02] *** Joins: Achylles (~Achylles@ )
[18:26:05] *** Quits: dardevelin (~dardeveli@ ) (Ping timeout: 240 seconds)
[18:58:39] -qtox-git-spam- [qTox] sudden6 pushed 1 new commit to master: https://git.io/v9LWG
[18:58:39] -qtox-git-spam- qTox/master 5b31cf6 sudden6: fix(profile): toxsave wasn't correctly encrypted...
[18:58:46] -qtox-git-spam- [qTox] sudden6 closed pull request #4347: fix(profile): toxsave wasn't correctly encrypted (master...fix4344) https://git.io/v9TNZ
[19:14:46] *** Quits: sudden6 (~anonymous@ ) (Ping timeout: 268 seconds)
[19:41:05] *** Joins: sudden6 (~anonymous@ )
[19:59:37] *** Quits: VVD (~VVD@ ) (Read error: Connection reset by peer)
[20:00:22] *** Joins: VVD (~VVD@ )
[20:02:35] *** Quits: sudden6 (~anonymous@ ) (Ping timeout: 240 seconds)
[21:12:21] *** Quits: rokups (uid197268@ ) (Quit: Connection closed for inactivity)
[21:17:35] *** Quits: f10 (~flo@ ) (Ping timeout: 240 seconds)
[21:20:04] *** Joins: f10 (~flo@ )
[21:37:28] *** Quits: guest748 (~username@ ) (Ping timeout: 260 seconds)
[22:01:08] *** Quits: VVD (~VVD@ ) (Read error: Connection reset by peer)
[22:01:31] *** Joins: VVD (~VVD@ )
[22:02:26] *** Quits: LittleVulpix (~Miranda@ ) (Quit: Miranda NG rocks. Trust the Vulpix. http://miranda-ng.org/)
[22:03:15] *** Joins: LittleVulpix (~Miranda@ )
[22:12:19] *** Quits: VVD (~VVD@ ) (Read error: Connection reset by peer)
[22:12:42] *** Joins: VVD (~VVD@ )
[22:17:21] *** Joins: dardevelin (~dardeveli@ )
[22:31:43] *** Quits: VVD (~VVD@ ) (Read error: Connection reset by peer)
[22:32:06] *** Joins: VVD (~VVD@ )
[22:43:40] *** Joins: sudden6 (~anonymous@ )
[22:43:40] *** Quits: VVD (~VVD@ ) (Read error: Connection reset by peer)
[22:44:12] *** Joins: VVD (~VVD@ )
[22:50:08] *** Quits: VVD (~VVD@ ) (Read error: Connection reset by peer)
[22:50:47] *** Joins: VVD (~VVD@ )
[22:52:27] *** Quits: sudden6 (~anonymous@ ) (Ping timeout: 268 seconds)
[22:53:01] *** Quits: VVD (~VVD@ ) (Read error: Connection reset by peer)
[22:53:39] *** Joins: VVD (~VVD@ )
[23:04:26] *** Quits: VVD (~VVD@ ) (Read error: Connection reset by peer)
[23:04:57] *** Joins: VVD (~VVD@ )
[23:11:19] *** Quits: f10 (~flo@ ) (Ping timeout: 255 seconds)
[23:15:31] *** Quits: VVD (~VVD@ ) (Read error: Connection reset by peer)
[23:16:12] *** Joins: VVD (~VVD@ )
