[00:03:07] *** Joins: kchz (~dschulz@ )
[00:12:37] <Chiitoo> zetok: Hmmmm is the... OS X/macOS build waiting for something indefinitely?  :S
[00:12:58] <zetok> yeah, for osx vm
[00:14:22] <Chiitoo> Oooh yeah now I found it doing something.
[00:14:43] <zetok> if you didn't have to wait >2h, consider yourself lucky
[00:15:01] <Chiitoo> Heh, well, been 2 hours and 23 minutes so far.
[00:15:08] <zetok> :|
[00:15:09] *** Quits: VVD (~VVD@ ) (Read error: Connection reset by peer)
[00:15:30] <Chiitoo> No matter to me really, just didn't see it doing anything else and was wondering, I found the other stuff now!
[00:15:53] *** Joins: VVD (~VVD@ )
[00:16:47] *** Quits: dardevelin (~dardeveli@ ) (Ping timeout: 256 seconds)
[00:17:12] <zetok> https://www.traviscistatus.com/ ← shows how overbooked VMs are
[00:19:44] <Chiitoo> Ufff I see.
[00:26:22] *** Quits: cenysor (~cenysor@ ) (Remote host closed the connection)
[00:30:53] *** Quits: kchz (~dschulz@ ) (Quit: ZZzzz…)
[00:36:15] *** Joins: kchz (~dschulz@ )
[01:42:25] *** Quits: bennabiy (~bennabiy@ ) (Remote host closed the connection)
[02:27:30] *** Quits: kchz (~dschulz@ ) (Quit: ZZzzz…)
[02:39:08] *** Joins: bennabiy (~bennabiy@ )
[03:37:08] *** Quits: DiCE1904 (~textual@ ) (Ping timeout: 255 seconds)
[04:00:34] *** Joins: chatter29 (32752d7d@ )
[04:13:38] *** Quits: chatter29 (32752d7d@ ) (Disconnected by services)
[04:26:18] -qtox-git-spam- [qTox] Diadlo opened pull request #4226: [NOT FOR MERGE] Chore/test travis (master...chore/test_travis) https://git.io/vysbJ
[04:32:23] *** Quits: VVD (~VVD@ ) (Read error: Connection reset by peer)
[04:32:44] *** Joins: VVD (~VVD@ )
[06:01:15] *** Joins: DiCE1904 (~textual@ )
[07:09:23] *** Joins: sudden6 (~anonymous@ )
[07:13:25] *** Quits: f10_ (~flo@ ) (Remote host closed the connection)
[07:13:26] *** Quits: VVD (~VVD@ ) (Read error: Connection reset by peer)
[07:14:15] *** Joins: VVD (~VVD@ )
[07:15:29] *** Quits: sudden6 (~anonymous@ ) (Ping timeout: 246 seconds)
[07:18:58] *** Quits: f10 (~flo@ ) (Ping timeout: 240 seconds)
[07:49:55] *** Quits: VVD (~VVD@ ) (Read error: Connection reset by peer)
[07:50:14] *** Joins: VVD (~VVD@ )
[07:55:30] *** Quits: VVD (~VVD@ ) (Read error: Connection reset by peer)
[07:55:59] *** Joins: VVD (~VVD@ )
[08:11:27] *** Quits: LittleVulpix (~Miranda@ ) (Quit: Miranda NG rocks. Trust the Vulpix. http://miranda-ng.org/)
[08:12:18] *** Joins: LittleVulpix (~Miranda@ )
[08:21:33] *** Joins: f10 (~flo@ )
[08:41:41] *** Quits: f10 (~flo@ ) (Ping timeout: 256 seconds)
[08:48:41] *** Joins: reBrain (~quassel@ )
[09:20:55] *** Quits: reBrain (~quassel@ ) (Remote host closed the connection)
[09:30:57] *** Joins: noavarice (5f208c0e@ )
[09:43:45] -qtox-git-spam- [qTox] sudden6 pushed 2 new commits to master: https://git.io/vyGsk
[09:43:45] -qtox-git-spam- qTox/master 9322f29 Jimi Huotari: feat(UI): Move filetransferwidget buttons side-by-side....
[09:43:45] -qtox-git-spam- qTox/master b14a35a sudden6: Merge pull request #4122...
[09:43:50] *** Joins: sudden6 (~anonymous@ )
[09:52:40] *** Quits: VVD (~VVD@ ) (Read error: Connection reset by peer)
[09:53:29] *** Joins: VVD (~VVD@ )
[09:59:05] *** Quits: noavarice (5f208c0e@ ) (Ping timeout: 260 seconds)
[10:00:22] *** Joins: smaragdus (~omoo@ )
[10:01:25] *** Joins: noavarice (5f208c0e@ )
[10:13:48] -qtox-git-spam- [qTox] sudden6 closed pull request #4218: fix(qmake): add forgotten files to qTox.pro (master...fix_qmake_bild) https://git.io/vyYfl
[10:48:03] *** Quits: sudden6 (~anonymous@ ) (Ping timeout: 256 seconds)
[10:56:17] *** Joins: sudden6 (~anonymous@ )
[11:06:11] *** Quits: sudden6 (~anonymous@ ) (Ping timeout: 256 seconds)
[11:06:12] *** Joins: dardevelin (~dardeveli@ )
[11:22:29] *** Quits: noavarice (5f208c0e@ ) (Quit: Page closed)
[11:33:52] *** Joins: f10 (~flo@ )
[11:35:02] *** Joins: f10_ (~flo@ )
[12:16:26] *** Joins: kchz (~dschulz@ )
[12:43:06] *** Quits: VVD (~VVD@ ) (Read error: Connection reset by peer)
[12:44:08] *** Joins: VVD (~VVD@ )
[12:49:10] *** Quits: kchz (~dschulz@ ) (Quit: ZZzzz…)
[13:05:56] *** Joins: sudden6 (~anonymous@ )
[13:08:47] *** Joins: DX37 (d4a4d0d7@ )
[13:15:20] *** Quits: f10_ (~flo@ ) (Ping timeout: 260 seconds)
[13:15:23] *** Quits: f10 (~flo@ ) (Ping timeout: 264 seconds)
[13:34:09] *** Quits: VVD (~VVD@ ) (Read error: Connection reset by peer)
[13:34:44] *** Joins: VVD (~VVD@ )
[13:35:21] *** Quits: DX37 (d4a4d0d7@ ) (Quit: Page closed)
[13:36:30] -qtox-git-spam- [qTox] zetok opened pull request #4227: fix: use Qt tray backend instead of GTK on under Xfce (master...fix-xfce-qt-tray) https://git.io/vyGDo
[14:05:30] *** Quits: LittleVulpix (~Miranda@ ) (Read error: Connection reset by peer)
[14:05:59] *** Joins: LittleVulpix (~Miranda@ )
[14:07:26] *** Joins: f10 (~flo@ )
[14:08:23] *** Joins: f10_ (~flo@ )
[14:11:16] *** Quits: VVD (~VVD@ ) (Read error: Connection reset by peer)
[14:11:34] *** Joins: VVD (~VVD@ )
[14:13:06] *** Joins: cenysor (~cenysor@ )
[14:32:47] *** Quits: dardevelin (~dardeveli@ ) (Ping timeout: 264 seconds)
[14:52:39] *** Quits: VVD (~VVD@ ) (Read error: Connection reset by peer)
[14:52:59] *** Joins: VVD (~VVD@ )
[14:57:36] *** Joins: kchz (~dschulz@ )
[15:14:54] *** Quits: kchz (~dschulz@ ) (Quit: ZZzzz…)
[15:33:54] <Chiitoo> zetok: Forgot to ask about the copyright on files, if it should have been updated with the changes...  I remember there was some discussion on that some ages ago, but that's all I remember.  :]
[15:34:25] <zetok> ~yeah
[15:34:52] <Chiitoo> Maybe next time, hehe.
[15:35:14] <zetok> basically copyright date should be updated whenever "substantial changes" are made
[15:35:37] *** Quits: sudden6 (~anonymous@ ) (Ping timeout: 240 seconds)
[15:36:20] *** Quits: LittleVulpix (~Miranda@ ) (Quit: Miranda NG rocks. Trust the Vulpix. http://miranda-ng.org/)
[15:36:37] <Chiitoo> That's what I was thinking, yeah.
[15:37:00] *** Joins: LittleVulpix (~Miranda@ )
[15:39:00] *** Quits: VVD (~VVD@ ) (Read error: Connection reset by peer)
[15:39:47] *** Joins: noavarice (5f208c0e@ )
[15:39:54] *** Joins: VVD (~VVD@ )
[15:53:09] *** Quits: f10_ (~flo@ ) (Remote host closed the connection)
[15:54:07] *** Joins: noavarice_ (5f208c0e@ )
[15:56:05] *** Quits: noavarice (5f208c0e@ ) (Ping timeout: 260 seconds)
[15:56:28] *** Joins: f10_ (~flo@ )
[16:04:42] *** Quits: noavarice_ (5f208c0e@ ) (Quit: Page closed)
[16:08:59] *** Quits: VVD (~VVD@ ) (Read error: Connection reset by peer)
[16:09:23] *** Joins: VVD (~VVD@ )
[16:15:54] *** Joins: kchz (~dschulz@ )
[16:22:28] *** Quits: f10_ (~flo@ ) (Ping timeout: 258 seconds)
[16:22:39] *** Quits: f10 (~flo@ ) (Ping timeout: 268 seconds)
[16:31:01] *** Joins: dardevelin (~dardeveli@ )
[16:31:36] *** Quits: kchz (~dschulz@ ) (Quit: ZZzzz…)
[17:21:24] *** Quits: VVD (~VVD@ ) (Read error: Connection reset by peer)
[17:21:59] *** Joins: VVD (~VVD@ )
[17:52:16] *** Quits: LittleVulpix (~Miranda@ ) (Quit: Miranda NG rocks. Trust the Vulpix. http://miranda-ng.org/)
[17:56:03] *** Joins: reBrain (~quassel@ )
[17:56:42] *** Joins: LittleVulpix (~Miranda@ )
[18:04:39] *** Quits: LittleVulpix (~Miranda@ ) (Quit: Miranda NG rocks. Trust the Vulpix. http://miranda-ng.org/)
[18:05:25] *** Joins: LittleVulpix (~Miranda@ )
[18:17:21] *** Quits: VVD (~VVD@ ) (Read error: Connection reset by peer)
[18:18:04] *** Joins: VVD (~VVD@ )
[18:36:58] *** Quits: VVD (~VVD@ ) (Read error: Connection reset by peer)
[18:37:30] *** Joins: VVD (~VVD@ )
[18:44:41] *** Quits: VVD (~VVD@ ) (Read error: Connection reset by peer)
[18:45:01] *** Joins: VVD (~VVD@ )
[19:04:33] *** Quits: VVD (~VVD@ ) (Read error: Connection reset by peer)
[19:05:19] *** Joins: VVD (~VVD@ )
[19:19:45] *** Joins: noavarice (5f20609d@ )
[19:21:20] *** Quits: noavarice (5f20609d@ ) (Client Quit)
[19:27:44] *** Quits: reBrain (~quassel@ ) (Remote host closed the connection)
[19:27:52] *** Joins: noavarice (5f20609d@ )
[19:34:51] *** Quits: noavarice (5f20609d@ ) (Quit: Page closed)
[19:41:47] *** Quits: dardevelin (~dardeveli@ ) (Ping timeout: 264 seconds)
[19:59:04] -qtox-git-spam- [qTox] Diadlo closed pull request #4226: [NOT FOR MERGE] Chore/test travis (master...chore/test_travis) https://git.io/vysbJ
[20:14:50] *** Quits: VVD (~VVD@ ) (Read error: Connection reset by peer)
[20:14:50] *** Joins: sudden6 (~anonymous@ )
[20:15:09] *** Joins: VVD (~VVD@ )
[20:34:05] *** Quits: VVD (~VVD@ ) (Read error: Connection reset by peer)
[20:34:34] *** Joins: VVD (~VVD@ )
[20:47:49] *** Joins: dardevelin (~dardeveli@ )
[20:59:37] <sudden6> zetok: can you give https://github.com/qTox/qTox/issues/4228 a look and ensure I didn't write something incorrect?
[21:02:34] <zetok> sudden6: yep, it's good
[21:02:53] <sudden6> thx, do you think the issue should be closed?
[21:03:44] <zetok> yeah
[21:06:27] <zetok> :/
[21:08:20] *** Joins: noavarice (5f20609d@ )
[21:17:58] <Chiitoo> Slight panic today morning (afternoon), when I built from master and the buttons were very messed up (like in one of my old builds).
[21:18:20] <Chiitoo> While figuring out how I would have managed to push that, I realised I was just running an old build!
[21:18:36] <Chiitoo> Scary stuff.
[21:30:17] *** Quits: noavarice (5f20609d@ ) (Quit: Page closed)
[21:42:01] *** Quits: VVD (~VVD@ ) (Read error: Connection reset by peer)
[21:42:25] *** Joins: VVD (~VVD@ )
[21:45:02] *** Quits: VVD (~VVD@ ) (Read error: Connection reset by peer)
[21:45:25] *** Joins: VVD (~VVD@ )
[21:50:28] *** Quits: VVD (~VVD@ ) (Read error: Connection reset by peer)
[21:51:10] *** Joins: VVD (~VVD@ )
[22:04:30] *** Joins: kchz (~dschulz@ )
[22:04:30] *** Quits: VVD (~VVD@ ) (Read error: Connection reset by peer)
[22:05:09] *** Joins: VVD (~VVD@ )
[22:27:49] *** Quits: VVD (~VVD@ ) (Read error: Connection reset by peer)
[22:28:20] *** Joins: VVD (~VVD@ )
[22:35:49] *** Joins: f10_ (~flo@ )
[22:35:52] *** Joins: f10 (~flo@ )
[22:46:55] *** Quits: VVD (~VVD@ ) (Read error: Connection reset by peer)
[22:47:50] *** Joins: VVD (~VVD@ )
[22:52:53] *** Quits: VVD (~VVD@ ) (Read error: Connection reset by peer)
[22:53:35] *** Joins: VVD (~VVD@ )
[23:08:05] *** Quits: sudden6 (~anonymous@ ) (Ping timeout: 260 seconds)
[23:22:22] -qtox-git-spam- [qTox] yurivict opened pull request #4230: Ensured that RawDatabase::execLater executes statements asynchronously. (master...db-execlater-fix) https://git.io/vynnH
[23:26:56] *** Quits: kchz (~dschulz@ ) (Quit: ZZzzz…)
