[01:33:10] *** Quits: VVD (~VVD@ ) (Read error: Connection reset by peer)
[01:33:52] *** Joins: VVD (~VVD@ )
[02:28:33] *** Quits: cenysor (~cenysor@ ) (Quit: Leaving)
[03:39:33] *** Quits: VVD (~VVD@ ) (Read error: Connection reset by peer)
[03:40:02] *** Joins: VVD (~VVD@ )
[06:27:09] *** Quits: agrecascino (~agrecasci@ ) (Ping timeout: 240 seconds)
[06:29:44] *** Joins: agrecascino (~agrecasci@ )
[06:51:29] *** Joins: f10_ (~flo@ )
[06:51:43] *** Joins: f10 (~flo@ )
[06:53:42] *** Quits: VVD (~VVD@ ) (Read error: Connection reset by peer)
[06:54:08] *** Quits: vindelschtuffen (~vindelsch@ ) (Read error: Connection reset by peer)
[06:54:31] *** Joins: VVD (~VVD@ )
[07:18:48] *** Quits: agrecascino (~agrecasci@ ) (Ping timeout: 256 seconds)
[07:23:18] *** Joins: agrecascino (~agrecasci@ )
[07:48:04] *** Joins: vindelschtuffen (~vindelsch@ )
[09:29:01] *** Joins: sudden6 (~anonymous@ )
[10:11:58] *** Quits: anoa (~anoa@ ) (Remote host closed the connection)
[10:12:26] *** Joins: anoa (~anoa@ )
[10:29:17] *** Quits: sudden6 (~anonymous@ ) (Ping timeout: 260 seconds)
[10:41:05] *** Quits: LittleVulpix (~Miranda@ ) (Quit: Miranda NG rocks. Trust the Vulpix. http://miranda-ng.org/)
[10:43:20] *** Joins: LittleVulpix (~Miranda@ )
[10:59:40] *** dongo_ is now known as dongo
[11:30:53] *** Quits: albel727 (~albel727@ ) (Quit: Changing server...)
[11:31:04] *** Joins: albel727 (~albel727@ )
[12:09:58] *** Joins: sudden6 (~anonymous@ )
[12:15:35] *** Quits: VVD (~VVD@ ) (Read error: Connection reset by peer)
[12:16:19] *** Joins: VVD (~VVD@ )
[12:39:46] *** Joins: mutin-s (~s-mutin@ )
[12:39:51] *** Quits: s-mutin (~s-mutin@ ) (Read error: Connection reset by peer)
[12:55:21] -qtox-git-spam- [qTox] noavarice opened pull request #4243: Fix url formatting again (master...fix-url-formatting) https://git.io/vy2aY
[12:55:36] *** Joins: noavarice (5f208325@ )
[13:12:05] *** Quits: f10_ (~flo@ ) (Remote host closed the connection)
[13:15:25] *** Joins: f10_ (~flo@ )
[13:32:53] *** Quits: noavarice (5f208325@ ) (Quit: Page closed)
[13:56:02] *** Quits: f10 (~flo@ ) (Ping timeout: 260 seconds)
[13:58:23] *** Quits: f10_ (~flo@ ) (Ping timeout: 268 seconds)
[14:28:31] *** Joins: pranomostro (~pranomost@ )
[15:06:22] *** Quits: VVD (~VVD@ ) (Read error: Connection reset by peer)
[15:07:03] *** Joins: VVD (~VVD@ )
[15:08:08] *** Joins: f10 (~flo@ )
[15:08:41] *** Joins: f10_ (~flo@ )
[15:10:49] *** Joins: noavarice (5f208325@ )
[15:12:21] *** Quits: VVD (~VVD@ ) (Read error: Connection reset by peer)
[15:12:50] *** Joins: VVD (~VVD@ )
[16:35:05] *** Joins: cenysor (~cenysor@ )
[16:43:31] *** Quits: noavarice (5f208325@ ) (Quit: Page closed)
[16:45:35] *** Joins: Yoshimo (~anything@ )
[17:49:01] *** Quits: voyager_ (~voyager@ ) (Ping timeout: 268 seconds)
[17:58:22] *** Quits: Yoshimo (~anything@ ) (Quit: Yoshimo)
[18:08:11] *** Joins: voyager_ (~voyager@ )
[18:15:54] *** Quits: VVD (~VVD@ ) (Read error: Connection reset by peer)
[18:16:19] *** Joins: VVD (~VVD@ )
[18:25:03] *** Quits: VVD (~VVD@ ) (Read error: Connection reset by peer)
[18:25:56] *** Joins: VVD (~VVD@ )
[18:44:43] *** Quits: DiCE1904 (~textual@ ) (Read error: Connection reset by peer)
[18:55:38] *** Joins: DiCE1904 (~textual@ )
[18:57:33] *** Joins: Thibault (4d806dd8@ )
[19:00:28] <Thibault> Hello! I have submitted a request to subscribe to the general mailing list, how does it work to get accepted?
[19:15:10] <zetok> Thibault: AFAIK you should get a confirmation mail, or something
[19:19:50] <Thibault> Well that's what I understand too, but it's been three days now, and still no confirmation mail :/
[19:20:26] <zetok> huh
[19:20:32] <zetok> nurupo: ↑ ?
[19:20:57] <zetok> Thibault: have you checked if it didn't land in spam?
[19:21:22] <zetok> btw, usually I'd expect mail to arrive in less than a minute
[19:25:37] <Chiitoo> Am I blind, or is there no link of any kind to the mailing lists at qtox.github.io?  I guess one has to go via tox.chat for them?
[19:26:40] <zetok> yeah, no link on qtox.github.io
[19:27:13] <Chiitoo> OK, not blind yet!  \ö/
[19:29:26] <Thibault> Of course it was in my junk folder... -_-
[19:29:51] <Thibault> Apparently Office 365 and thunderbird don't get along very well
[19:30:08] <Thibault> Alright thanks folks!
[19:34:52] <sudden6> zetok: are you only updating gitlab irc logs anymore?
[19:35:15] <Chiitoo> Hmmm.  I have a fix for the filetransferwidget button background in that, I kinda forgot to make the upper right corner rounded, since it's not visible.  It's not exactly something anyone will see, unless they change the button background colour, so it can probably wait for some other changes...
[19:35:38] <zetok> sudden6: yeah, since new github ToS I've been pushing logs only to gitlab
[19:36:15] <zetok> I guess channel topic needs to be updated
[19:36:16] <sudden6> zetok: can you put a note in the GH repo then? I just wondered why they stopped.
[19:36:23] <sudden6> also this
[19:37:00] <sudden6> Chiitoo: if you already have a fix, it's best to just open a PR
[19:37:10] <sudden6> small changes are easier to integrate
[19:37:14] <zetok> https://github.com/zetok/epaste/blob/deleted/README.md ← would that kind of note be good?
[19:38:09] <Chiitoo> sudden6: True.
[19:38:39] <sudden6> zetok: I would suggest something like "Repository moved due to Github ToS changes"
[19:39:21] <sudden6> also not everybody seems to see the ToS changes as drastic as the guy you linked to
[19:39:24] <sudden6> see https://www.earth.li/~noodles/blog/2017/03/github-tos-change.html
[19:40:36] <zetok> does the opposite opinion come from a person who doesn't use GPL for their projects?
[19:41:10] <sudden6> idk
[20:09:14] <zetok> https://a.uguu.se/QMR1m71R534N.png hm.
[20:11:57] *** Joins: reBrain (~quassel@ )
[20:17:51] <Chiitoo> Bwahaha.
[20:18:03] <Chiitoo> Took me a while to realise it was the image, not actual connection fail.
[20:18:13] <Chiitoo> Not quite awake still, I maybe guess.
[20:20:23] <zetok> >.<
[20:30:29] <Chiitoo> “Unknown content type” though.  Seems interesting.
[20:35:54] <Chiitoo> Did not get anything like that using QupZilla.
[20:46:08] *** Quits: reBrain (~quassel@ ) (Remote host closed the connection)
[21:09:47] *** Quits: VVD (~VVD@ ) (Read error: Connection reset by peer)
[21:10:09] *** Joins: VVD (~VVD@ )
[21:56:42] *** Quits: Thibault (4d806dd8@ ) (Quit: Page closed)
[22:28:35] *** Quits: sudden6 (~anonymous@ ) (Ping timeout: 264 seconds)
[23:03:30] *** Joins: sudden6 (~anonymous@ )
[23:43:58] *** Quits: VVD (~VVD@ ) (Read error: Connection reset by peer)
[23:44:24] *** Joins: VVD (~VVD@ )
