[00:54:11] -qtox-git-spam- [qTox] quatrox closed pull request #4270: Install dependencies (master...install_dependencies) https://git.io/vydbm
[01:21:57] *** Joins: DiCE1904 (~textual@ )
[01:25:58] -qtox-git-spam- [qTox] quatrox opened pull request #4273: chore(build): add missing dependencies and fix make path (master...fix_install_script) https://git.io/vyNdd
[01:34:49] *** Parts: Se7en (~Se7en@ ) ("Leaving")
[03:11:56] *** Quits: anoa (~anoa@ ) (Ping timeout: 240 seconds)
[03:14:21] *** Joins: anoa (~anoa@ )
[03:34:45] <SSBN-731> Hey guys. I've been thinking of hosting a key signing party. I've never done this before but I think I've gathered enough friends who would be interested in it as an experiment.
[03:34:55] <SSBN-731> Anyone have any tips or suggestions? I've been thinking...
[03:35:41] <SSBN-731> To avoid the dangers of cross-contaminating any of our laptops, what I'll do is I'll verify the software, then the installers to a USB DVD ROM, rather than use a memory stick.
[03:36:04] <SSBN-731> *then burn the installers to a USB DVD ROM
[03:36:29] <SSBN-731> I also figured, what I could do would be to serve cakes. Everyone loves cakes. I'll even see if I can make a cake in the shape of a key.
[03:37:43] <SSBN-731> Er, sorry, I'll burn the installersto a DVD, then I'll pass around a USB DVD drive for people to take the installer from. 
[03:56:33] *** Quits: voyager_ (~voyager@ ) (Ping timeout: 260 seconds)
[03:58:52] *** Joins: voyager_ (~voyager@ )
[04:23:08] *** Quits: anoa (~anoa@ ) (Ping timeout: 240 seconds)
[04:24:29] *** Joins: anoa (~anoa@ )
[06:11:33] -qtox-git-spam- [qTox] Diadlo opened pull request #4274: fix(README): Fix mardown to correct display on github (master...fix/README) https://git.io/vyAtJ
[06:13:14] -qtox-git-spam- [qTox] Diadlo pushed 2 new commits to master: https://git.io/vyAtk
[06:13:14] -qtox-git-spam- qTox/master add8d51 Diadlo: refactor: ContentDialog refactoring
[06:13:14] -qtox-git-spam- qTox/master 74356ab Diadlo: docs: Add docs to ContentDialog
[06:13:33] -qtox-git-spam- [qTox] Diadlo closed pull request #4252: Refactor of ContentDialog (master...refactor/ContentDiadlog) https://git.io/vyKdX
[07:11:01] *** Joins: rokups (uid197268@ )
[07:17:30] *** Joins: sudd3n6 (~anonymous@ )
[07:20:52] <zetok> SSBN-731: perhaps you could look into how e.g. Debian organizes that stuff; have fun with the party :)
[07:23:17] *** Quits: sudd3n6 (~anonymous@ ) (Ping timeout: 260 seconds)
[07:25:13] *** Joins: vFSgrcFGBJHg (~rYUtdcvYT@ )
[07:42:22] *** Joins: f10 (~flo@ )
[07:47:16] *** Joins: sudd3n6 (~anonymous@ )
[08:00:38] *** Joins: f10_ (~flo@ )
[08:11:29] *** Quits: sudd3n6 (~anonymous@ ) (Ping timeout: 240 seconds)
[08:19:35] *** Quits: f10_ (~flo@ ) (Ping timeout: 264 seconds)
[08:20:11] *** Quits: f10 (~flo@ ) (Ping timeout: 264 seconds)
[09:04:13] *** Joins: f10 (~flo@ )
[09:04:21] *** Joins: f10_ (~flo@ )
[09:10:58] *** Joins: SkyzohKey (~SkyzohKey@ )
[09:28:27] *** Joins: sudd3n6 (~anonymous@ )
[09:30:48] -qtox-git-spam- [qTox] sudden6 closed pull request #4268: chore: fix simple_make.sh to work with cmake (master...fix_simple_make) https://git.io/vyd2y
[09:35:58] *** Quits: sudd3n6 (~anonymous@ ) (Ping timeout: 240 seconds)
[09:38:22] *** Joins: DX37 (~Maxim@ )
[09:40:04] *** Quits: DX37 (~Maxim@ ) (Client Quit)
[09:53:26] *** Joins: DX37 (~DX37@ )
[09:53:56] *** Quits: DX37 (~DX37@ ) (Quit: Leaving)
[11:05:43] *** Joins: pcre (~quassel@ )
[11:21:54] *** Joins: sudd3n6 (~anonymous@ )
[13:20:53] *** agrecascino_ is now known as agrecascino
[14:21:22] *** Joins: DX37 (~DX37@ )
[14:21:27] <DX37> Heeeeeeey
[14:21:31] <DX37> Guuuuuys
[14:22:16] *** Quits: VVD (~VVD@ ) (Read error: Connection reset by peer)
[14:22:29] <DX37> Just look at new package in Windows MSYS2 http://imgur.com/a/7EVrW
[14:23:05] *** Joins: VVD (~VVD@ )
[14:23:09] <DX37> I made the guys from MSYS2 make the package :D
[14:25:00] <zetok> nice
[14:25:11] <zetok> DX37: could you add that to INSTALL.md ?
[14:25:41] <DX37> No. Because it still not working :\
[14:26:04] <zetok> >.<
[14:26:09] <DX37> qtox.pro or CMakeLists.txt must be changed.
[14:26:23] <DX37> Link flags, testing, etc...
[14:26:41] <DX37> At least I have built sqlcipher
[14:27:06] <DX37> I tested cross-compile on Arch Linux. And it done well with qmake
[14:27:21] <DX37> But on Windows it requires a lot of dll's and etc.
[14:27:49] <DX37> And because of unknown bug with client on Windows, it's just doesn't start at all.
[14:28:02] <DX37> (or maybe it's my Windows stupid, I dunno)
[14:40:06] <DX37> zetok: When tux3 is showing up here?
[14:44:32] <zetok> no idea
[14:44:42] <DX37> ._.
[14:45:27] <DX37> Well... I will search for bad commit.
[14:45:32] <DX37> Sometime.
[14:53:05] *** Quits: DX37 (~DX37@ ) (Quit: Leaving)
[16:15:55] *** Quits: LittleVulpix (~Miranda@ ) (Quit: Miranda NG rocks. Trust the Vulpix. http://miranda-ng.org/)
[16:25:24] *** Joins: LittleVulpix (~Miranda@ )
[16:26:54] *** Quits: LittleVulpix (~Miranda@ ) (Client Quit)
[16:27:24] *** Joins: LittleVulpix (~Miranda@ )
[16:43:44] *** Quits: sudd3n6 (~anonymous@ ) (Ping timeout: 246 seconds)
[17:07:40] *** Quits: SkyzohKey (~SkyzohKey@ ) (Remote host closed the connection)
[17:57:51] *** Quits: pcre (~quassel@ ) (Remote host closed the connection)
[18:32:42] *** Joins: sudd3n6 (~anonymous@ )
[18:42:31] -qtox-git-spam- [qTox] sudden6 opened pull request #4276: fix: change useless line to what was intended (master...fix_textformatter) https://git.io/vyxND
[19:16:27] *** Joins: cenysor (~cenysor@ )
[19:18:15] <Diadlo> Hi
[19:19:01] <Diadlo> sudd3n6, zetok: Do you have any ideas, what do with `#warning`, which break travis build with `-Werror`?
[19:19:45] *** Quits: f10 (~flo@ ) (Ping timeout: 240 seconds)
[19:21:25] <zetok> :/
[19:22:42] <zetok> change it to comment?
[19:22:50] <zetok> or rather
[19:23:00] <zetok> QDebug() ?
[19:23:43] <Diadlo> I thought qWarning
[19:23:49] <zetok> right
[19:26:06] <zetok> I wonder though
[19:26:30] <Diadlo> Hm?
[19:26:59] <zetok> when will be the right time to drop support for debian 8
[19:27:17] <Diadlo> debian 8 is stable?
[19:27:21] <zetok> yep
[19:27:30] <zetok> soon™ oldstable
[19:27:38] <Diadlo> When debian 9 will be stable :)
[19:28:04] <zetok> AFAIK 9 is in last stabilization phase
[19:28:29] <zetok> alpha8
[19:28:43] <Diadlo> When it passes this phase
[19:28:58] <zetok> no wait
[19:29:01] <zetok> rc2 already
[19:29:12] <zetok> alpha8 was ~3 months ago >.<
[19:29:15] <Diadlo> Does debian 9 support ffmpeg 3?
[19:29:19] * zetok looked at the wrong image
[19:29:20] <zetok> yep
[19:29:26] <Diadlo> :/
[19:30:00] <Diadlo> Why didn't you notify me?)
[19:30:17] <Diadlo> About https://github.com/qTox/qTox/pull/4266
[19:30:36] <zetok> um?
[19:31:05] <Diadlo> I use `#if` in this PR. Which will be useless, when we drop debian 8
[19:31:33] <zetok> sadly, we're not dropping that yet :/
[19:32:09] <Diadlo> But we plan to do it in the near future?
[19:32:30] <zetok> i.e. I'm just wondering how long after debian 9 becomes stable support for debian 8 should be dropped
[19:32:48] <Diadlo> Immediately?)
[19:33:01] <zetok> um, "near future" doesn't really apply to debian's glacier speed of development
[19:33:07] <Diadlo> Ok
[19:34:10] <zetok> "last stabilisation phase" means that it should take /only/ to release debian 9 as stable
[19:34:21] <zetok> only month or two*
[19:39:25] *** Joins: f10 (~flo@ )
[20:09:28] *** Quits: f10_ (~flo@ ) (Ping timeout: 240 seconds)
[20:09:32] *** Quits: f10 (~flo@ ) (Ping timeout: 246 seconds)
[20:11:18] <sudd3n6> Diadlo: mind to review #4250?
[20:11:49] <sudd3n6> zetok: I think we should write down somewhere our oldest supported distros
[20:11:58] <Diadlo> sudd3n6: Yes. In a few minutes
[20:12:08] <sudd3n6> and the version of available dependencies there
[20:12:19] <Diadlo> Lol
[20:12:21] <sudd3n6> Diadlo: thanks, no hurry
[20:12:24] <Diadlo> zetok: <a name="qtox" \>
[20:12:31] <Diadlo> It was a wrong slash :)
[20:13:50] <zetok> sudd3n6: those things change all the time
[20:14:30] <sudd3n6> zetok: what do you mean exactly?
[20:18:07] <zetok> I think that whatever can be supported should be supported
[20:18:51] <zetok> but at the same time there's no reason to waste time on distros that are hostile to providing software on them
[20:19:27] <zetok> support debian, possibly latests LTS ubuntu, and that will cover most of it
[20:21:40] <zetok> ><sudd3n6> and the version of available dependencies there
[20:21:52] <zetok> sudd3n6: are you going to be constantly updating that list?
[20:22:36] <zetok> as for dependencies, we should care which oldest library versions we support
[20:23:02] <zetok> preferably, old enough for debian stable and ubuntu LTS
[20:24:39] <sudd3n6> zetok: That's exactly what I meant, debian and ubuntu LTS are probably the slowest moving distros we support (maybe openSUSE Leap too but idk)
[20:25:25] <sudd3n6> so we should write that down somewhere, so we don't introduce hard dependencies on things that don't exist there
[20:25:39] *** Quits: cenysor (~cenysor@ ) (Quit: Leaving)
[20:26:13] <zetok> eh
[20:26:26] <zetok> qTox doesn't exist there
[20:42:12] *** Joins: f10_ (~flo@ )
[20:42:20] *** Joins: f10 (~flo@ )
[20:42:44] *** Quits: anoa (~anoa@ ) (Ping timeout: 240 seconds)
[20:43:52] *** Joins: anoa (~anoa@ )
[21:01:53] <Diadlo> zetok: Can you take a look on #4274 again?
[21:02:02] <Diadlo> I have changed it
[21:03:09] <Diadlo> github add <p> in 2 newlines (in strings too)
[21:04:42] <zetok> Diadlo: lgtm
[21:08:11] *** Joins: dardevelin (~dardeveli@ )
[21:32:15] *** Quits: rokups (uid197268@ ) (Quit: Connection closed for inactivity)
[22:06:24] *** Quits: Chiitoo (~Chiitoo@ ) (Ping timeout: 268 seconds)
[22:08:53] *** Joins: Chiitoo (~Chiitoo@ )
[22:23:45] *** Quits: sudd3n6 (~anonymous@ ) (Ping timeout: 240 seconds)
[23:12:41] *** Joins: cenysor (~cenysor@ )
[23:32:25] *** Quits: f10_ (~flo@ ) (Remote host closed the connection)
[23:36:14] *** Joins: f10_ (~flo@ )
[23:36:51] <SSBN-731> Hey zetok! Ooh, do you have any links? I'd love to read up on that.
[23:48:36] *** Quits: f10_ (~flo@ ) (Ping timeout: 240 seconds)
[23:52:51] *** Joins: f10_ (~flo@ )
[23:57:32] <koshii> How can I remove the encryption on a profile?
[23:57:45] *** Quits: f10_ (~flo@ ) (Ping timeout: 240 seconds)
[23:57:48] <koshii> (user.tox file)
[23:57:54] <koshii> I want to be able to automatically login.
