[00:05:04] <VVD> hi
[00:05:30] <VVD> what is correct repository for installing qtox on Ubuntu?
[00:38:52] *** Quits: DiCE1904 (~textual@ ) (Quit: Textual IRC Client: www.textualapp.com)
[00:54:47] <oranges> qtox has no packages anymore
[00:54:50] <oranges> it's finished
[00:54:58] <SSBN-735> Wait, what!?
[00:55:04] <VVD> troll
[00:55:08] <VVD> trolling
[00:55:51] *** Quits: cenysor (~cenysor@ ) (Remote host closed the connection)
[03:39:43] *** Quits: voyager_ (~voyager@ ) (Read error: Connection reset by peer)
[03:40:31] *** Joins: voyager_ (~voyager@ )
[04:52:50] *** Quits: VVD (~VVD@ ) (Read error: Connection reset by peer)
[04:53:47] *** Joins: VVD (~VVD@ )
[05:56:58] *** Joins: f10 (~flo@ )
[05:57:07] *** Joins: f10_ (~flo@ )
[07:03:41] *** Quits: f10 (~flo@ ) (Ping timeout: 246 seconds)
[07:03:58] *** Quits: f10_ (~flo@ ) (Ping timeout: 240 seconds)
[07:33:30] *** Joins: sudden6 (~anonymous@ )
[07:44:52] *** Quits: sudden6 (~anonymous@ ) (Ping timeout: 240 seconds)
[07:56:49] *** Quits: LittleVulpix (~Miranda@ ) (Quit: Miranda NG rocks. Trust the Vulpix. http://miranda-ng.org/)
[07:58:03] *** Joins: LittleVulpix (~Miranda@ )
[08:12:16] *** Joins: f10 (~flo@ )
[08:15:57] *** Joins: f10_ (~flo@ )
[09:40:02] *** Joins: sudden6 (~anonymous@ )
[10:26:14] *** Joins: albel727 (~albel727@ )
[10:58:26] *** Joins: SkyzohKey (~SkyzohKey@ )
[11:16:58] *** Quits: voyager_ (~voyager@ ) (Read error: Connection reset by peer)
[11:17:31] *** Joins: voyager_ (~voyager@ )
[11:18:45] *** Quits: sudden6 (~anonymous@ ) (Ping timeout: 260 seconds)
[11:29:51] *** Joins: sudden6 (~anonymous@ )
[12:13:57] *** Quits: LittleVulpix (~Miranda@ ) (Quit: Miranda NG rocks. Trust the Vulpix. http://miranda-ng.org/)
[12:14:40] *** Joins: LittleVulpix (~Miranda@ )
[13:03:53] *** Quits: sudden6 (~anonymous@ ) (Ping timeout: 256 seconds)
[14:28:43] *** Joins: sudden6 (~anonymous@ )
[14:44:58] *** Joins: sfantu (52890641@ )
[14:48:12] *** Quits: f10 (~flo@ ) (Read error: Connection reset by peer)
[14:51:30] *** Joins: f10 (~flo@ )
[14:54:18] *** Quits: cisc (~cisc@ ) (Quit: Konversation terminated!)
[14:55:14] *** Joins: cisc (~cisc@ )
[15:05:18] *** Quits: sfantu (52890641@ ) (Quit: Page closed)
[15:08:31] *** Quits: f10 (~flo@ ) (Remote host closed the connection)
[15:11:49] *** Joins: f10 (~flo@ )
[15:44:36] *** Quits: dan- (~d@ ) (Ping timeout: 240 seconds)
[15:49:13] *** Joins: dan- (~d@ )
[15:49:13] *** Quits: dan- (~d@ ) (Changing host)
[15:49:13] *** Joins: dan- (~d@ )
[16:04:55] *** Joins: noavarice (5f20173b@ )
[16:08:19] *** Quits: VVD (~VVD@ ) (Read error: Connection reset by peer)
[16:08:55] *** Quits: albel727 (~albel727@ ) (Quit: KVIrc 4.9.2 Aria http://www.kvirc.net/)
[16:09:26] *** Joins: VVD (~VVD@ )
[16:13:26] *** Joins: albel727 (~albel727@ )
[16:36:23] *** Quits: SkyzohKey (~SkyzohKey@ ) (Ping timeout: 264 seconds)
[16:43:56] *** Quits: LittleVulpix (~Miranda@ ) (Quit: Miranda NG rocks. Trust the Vulpix. http://miranda-ng.org/)
[16:56:02] *** Joins: LittleVulpix (~Miranda@ )
[17:01:50] *** Joins: SkyzohKey (~SkyzohKey@ )
[17:34:41] *** Quits: f10_ (~flo@ ) (Remote host closed the connection)
[17:40:51] *** Quits: LittleVulpix (~Miranda@ ) (Quit: Miranda NG rocks. Trust the Vulpix. http://miranda-ng.org/)
[17:41:50] *** Joins: f10_ (~flo@ )
[17:43:23] *** Joins: LittleVulpix (~Miranda@ )
[18:59:29] *** Quits: SkyzohKey (~SkyzohKey@ ) (Ping timeout: 240 seconds)
[19:01:43] *** Quits: noavarice (5f20173b@ ) (Quit: Page closed)
[19:26:02] *** Quits: sudden6 (~anonymous@ ) (Ping timeout: 246 seconds)
[19:32:00] *** Joins: sudden6 (~anonymous@ )
[19:34:52] *** Quits: LittleVulpix (~Miranda@ ) (Quit: Miranda NG rocks. Trust the Vulpix. http://miranda-ng.org/)
[19:35:20] *** Joins: LittleVulpix (~Miranda@ )
[19:41:59] *** Quits: f10 (~flo@ ) (Ping timeout: 268 seconds)
[19:56:29] *** Quits: sudden6 (~anonymous@ ) (Ping timeout: 246 seconds)
[20:04:21] *** Joins: sudden6 (~anonymous@ )
[20:05:02] *** Joins: f10 (~flo@ )
[21:04:34] *** Quits: sudden6 (~anonymous@ ) (Quit: Konversation terminated!)
[22:19:07] *** Joins: sudden6 (~anonymous@ )
[22:28:45] *** Quits: sudden6 (~anonymous@ ) (Ping timeout: 260 seconds)
[22:49:15] *** Joins: cenysor (~cenysor@ )
[22:51:06] *** Quits: f10_ (~flo@ ) (Ping timeout: 240 seconds)
[22:55:36] *** Quits: f10 (~flo@ ) (Ping timeout: 240 seconds)
