[00:55:21] *** Joins: f10 (~flo@ )
[01:13:42] *** Quits: f10 (~flo@ ) (Ping timeout: 252 seconds)
[02:06:16] -qtox-git-spam- [qTox] anthonybilinski opened pull request #4630: fix(avatar): Don't invert default avatar colour on connect (master...fix_default_avatar) https://git.io/v5weO
[02:35:11] *** Quits: smaragdus (~smaragdus@ ) (Ping timeout: 248 seconds)
[02:35:39] *** Joins: smaragdus (~smaragdus@ )
[03:19:36] -qtox-git-spam- [qTox] anthonybilinski opened pull request #4632: fix(friends): Friend request button target location (master...fix_new_friend_request) https://git.io/v5wJE
[03:30:16] -qtox-git-spam- [qTox] anthonybilinski opened pull request #4634: fix(popup): Don't create two error popups for friend requests (master...fix_error_popup) https://git.io/v5wJd
[05:22:05] *** Quits: Xeno_PL (~XenoPL@ ) (Ping timeout: 248 seconds)
[05:22:32] *** Joins: Xeno_PL (~XenoPL@ )
[07:01:23] *** Joins: f10 (~flo@ )
[07:34:37] *** Joins: sudden6 (~anonymous@ )
[07:43:56] *** Joins: rokups (uid197268@ )
[07:54:04] *** Quits: sudden6 (~anonymous@ ) (Ping timeout: 260 seconds)
[08:40:20] *** Joins: skyzohkey (~skyzohkey@ )
[08:44:58] *** Quits: Xeno_PL (~XenoPL@ ) (Remote host closed the connection)
[08:45:15] *** Joins: Xeno_PL (~XenoPL@ )
[08:54:21] *** Joins: Amuza (~Amuza@ )
[09:02:15] *** Quits: Xeno_PL (~XenoPL@ ) (Ping timeout: 246 seconds)
[09:16:01] *** Quits: cisc (~cisc@ ) (Ping timeout: 252 seconds)
[09:16:27] *** Joins: cisc (~cisc@ )
[10:02:16] *** Quits: f10 (~flo@ ) (Read error: Connection reset by peer)
[10:03:13] *** Joins: f10 (~flo@ )
[10:45:02] *** Joins: lmposter (~lmposter@ )
[10:49:02] <skyzohkey> https://github.com/SkyzohKey/tox-website/issues/5 <- Input needed, in the search of the perfect color
[11:04:19] *** Quits: lmposter (~lmposter@ ) (Read error: Connection reset by peer)
[11:04:41] *** Joins: lmposter (~lmposter@ )
[11:18:57] *** Quits: cisc (~cisc@ ) (Ping timeout: 240 seconds)
[11:19:15] *** Joins: cisc (~cisc@ )
[11:52:18] *** Quits: Diadlo (~Diadlos2@ ) (Remote host closed the connection)
[11:53:01] *** Joins: Diadlo (~Diadlos2@ )
[12:12:30] *** Joins: Achylles (~Achylles@ )
[12:24:55] *** Quits: Achylles (~Achylles@ ) (Remote host closed the connection)
[12:28:14] *** Joins: Achylles (~Achylles@ )
[14:11:17] *** Joins: cenysor (~cenysor@ )
[14:22:25] *** Quits: cisc (~cisc@ ) (Ping timeout: 264 seconds)
[14:26:38] *** Quits: f10 (~flo@ ) (Ping timeout: 260 seconds)
[14:28:17] *** Quits: LittleVulpix (~Miranda@ ) (Quit: Miranda NG rocks. Trust the Vulpix. http://miranda-ng.org/)
[14:35:44] *** Joins: LittleVulpix (~Miranda@ )
[14:43:27] *** Joins: cisc (~cisc@ )
[15:06:19] *** Quits: lmposter (~lmposter@ ) (Ping timeout: 240 seconds)
[15:25:53] *** Joins: f10 (~flo@ )
[15:41:20] *** Quits: f10 (~flo@ ) (Ping timeout: 255 seconds)
[15:42:14] *** Quits: skyzohkey (~skyzohkey@ ) (Ping timeout: 255 seconds)
[15:49:27] *** Quits: Amuza (~Amuza@ ) (Ping timeout: 260 seconds)
[16:10:10] *** Joins: lmposter (~lmposter@ )
[16:11:09] *** Joins: f10 (~flo@ )
[16:23:23] *** Quits: f10 (~flo@ ) (Ping timeout: 248 seconds)
[16:27:52] *** Quits: lmposter (~lmposter@ ) (Read error: Connection reset by peer)
[16:45:02] *** Joins: sudden6 (~anonymous@ )
[16:45:58] *** Joins: lmposter (~lmposter@ )
[17:03:28] *** Joins: f10 (~flo@ )
[17:23:52] *** Joins: murray (~murray@ )
[17:32:29] *** Joins: anon324 (~\@ )
[17:38:34] *** Quits: anon324 (~\@ ) (Ping timeout: 248 seconds)
[17:42:22] *** Joins: Kornik (~lmposter@ )
[17:45:30] *** Quits: lmposter (~lmposter@ ) (Ping timeout: 248 seconds)
[17:55:49] *** Joins: anon324 (~\@ )
[17:55:58] *** Joins: RaptorrX (2d372441@ )
[17:56:13] <RaptorrX> Hello all
[17:59:18] *** Quits: RaptorrX (2d372441@ ) (Client Quit)
[18:06:17] *** Joins: Amuza (~Amuza@ )
[18:35:06] *** Quits: anon324 (~\@ ) (Ping timeout: 248 seconds)
[18:35:24] *** Quits: cenysor (~cenysor@ ) (Remote host closed the connection)
[18:49:19] *** Joins: anon324 (~\@ )
[18:54:50] *** Quits: anon324 (~\@ ) (Ping timeout: 248 seconds)
[19:28:14] *** Joins: noavarice (~alexrazin@ )
[19:39:40] *** Quits: rokups (uid197268@ ) (Quit: Connection closed for inactivity)
[19:42:50] *** Quits: murray (~murray@ ) (Ping timeout: 248 seconds)
[19:48:07] *** Joins: murray (~murray@ )
[20:10:32] *** Quits: noavarice (~alexrazin@ ) (Quit: WeeChat 1.7)
[20:20:10] *** Quits: sudden6 (~anonymous@ ) (Ping timeout: 248 seconds)
[20:31:48] *** Quits: cisc (~cisc@ ) (Ping timeout: 240 seconds)
[20:36:30] *** Joins: cisc (~cisc@ )
[20:52:58] *** Quits: Amuza (~Amuza@ ) (Remote host closed the connection)
[21:00:12] *** Joins: f15h (~thomas@ )
[21:17:58] *** Joins: noavarice (~noavarice@ )
[21:45:35] *** Quits: Achylles (~Achylles@ ) (Quit: Leaving)
[21:53:49] *** Quits: f15h (~thomas@ ) (Quit: Konversation terminated!)
[22:07:06] *** Quits: murray (~murray@ ) (Quit: Leaving)
[22:23:02] *** Quits: f10 (~flo@ ) (Ping timeout: 252 seconds)
[22:36:50] *** Quits: Kornik (~lmposter@ ) (Read error: Connection reset by peer)
[22:51:18] *** Quits: noavarice (~noavarice@ ) (Quit: Bye)
