[01:58:38] *** Quits: Achylles (~Achylles@ ) (Ping timeout: 240 seconds)
[02:05:29] *** Quits: cisc (~cisc@ ) (Ping timeout: 248 seconds)
[02:07:53] *** Joins: cisc (~cisc@ )
[02:17:35] *** Quits: f10 (~flo@ ) (Ping timeout: 240 seconds)
[03:12:46] *** Quits: cisc (~cisc@ ) (Ping timeout: 260 seconds)
[03:14:52] *** Joins: cisc (~cisc@ )
[06:20:02] *** Quits: cisc (~cisc@ ) (Ping timeout: 252 seconds)
[06:21:58] *** Joins: cisc (~cisc@ )
[06:30:04] *** Quits: cisc (~cisc@ ) (Quit: Konversation terminated!)
[06:43:58] *** Joins: cisc (~cisc@ )
[07:57:49] *** Quits: smaragdus (~smaragdus@ ) (Quit: Nettalk6 - www.ntalk.de)
[08:09:17] *** Joins: lmposter (~lmposter@ )
[08:09:25] *** Joins: sudden6 (~anonymous@ )
[08:10:53] -qtox-git-spam- [qTox] sudden6 pushed 2 new commits to master: https://git.io/vdLf0
[08:10:53] -qtox-git-spam- qTox/master 6cf394d anthony.bilinski: chore: update bootstrap nodes list...
[08:10:53] -qtox-git-spam- qTox/master 8655b83 sudden6: Merge pull request #4692...
[08:11:01] -qtox-git-spam- [qTox] sudden6 closed pull request #4692: update(nodes): Update bootstrap nodes list (master...update(nodes)) https://git.io/vdkAc
[08:17:27] *** Quits: sudden6 (~anonymous@ ) (Ping timeout: 264 seconds)
[08:47:31] *** Joins: Amuza (~Amuza@ )
[09:31:36] *** Joins: f10 (~flo@ )
[10:32:13] *** Quits: cisc (~cisc@ ) (Ping timeout: 240 seconds)
[10:52:39] *** Joins: cisc (~cisc@ )
[11:56:04] *** Quits: albel727 (~albel727@ ) (Ping timeout: 240 seconds)
[12:05:39] *** Quits: f10 (~flo@ ) (Read error: Connection reset by peer)
[12:06:46] *** Joins: f10 (~flo@ )
[13:17:18] *** Quits: cisc (~cisc@ ) (Ping timeout: 255 seconds)
[13:25:33] *** Joins: cisc (~cisc@ )
[13:30:00] *** Joins: sudden6 (~anonymous@ )
[13:37:16] *** Quits: sudden6 (~anonymous@ ) (Ping timeout: 252 seconds)
[13:47:40] *** Quits: cisc (~cisc@ ) (Ping timeout: 240 seconds)
[13:48:02] *** Joins: cisc (~cisc@ )
[14:04:39] *** Joins: Achylles (~Achylles@ )
[14:07:14] *** Joins: cenysor (~cenysor@ )
[14:15:05] *** Quits: cisc (~cisc@ ) (Ping timeout: 248 seconds)
[14:15:26] *** Joins: cisc (~cisc@ )
[14:26:42] *** Quits: cenysor (~cenysor@ ) (Remote host closed the connection)
[15:02:26] *** Quits: lmposter (~lmposter@ ) (Ping timeout: 264 seconds)
[15:06:11] *** Quits: Achylles (~Achylles@ ) (Ping timeout: 255 seconds)
[15:09:25] *** Quits: f10 (~flo@ ) (Read error: Connection reset by peer)
[15:10:07] *** Joins: f10 (~flo@ )
[15:51:09] *** Joins: cenysor (~cenysor@ )
[16:06:11] *** Joins: Anko1 (~Anko@ )
[16:11:25] *** Quits: Amuza (~Amuza@ ) (Ping timeout: 264 seconds)
[16:12:20] *** Quits: cisc (~cisc@ ) (Ping timeout: 255 seconds)
[16:13:15] *** Joins: cisc (~cisc@ )
[16:26:34] *** Quits: blap (~blap@ ) (Ping timeout: 240 seconds)
[16:38:16] *** Joins: murray (~murray@ )
[16:49:21] *** Joins: Xeno_PL (~Xeno@ )
[17:01:49] *** Joins: lmposter (~lmposter@ )
[17:06:25] *** Anko1 is now known as Anko
[17:12:01] *** Joins: Amuza (~Amuza@ )
[17:40:49] *** Quits: Xeno_PL (~Xeno@ ) (Ping timeout: 264 seconds)
[17:54:20] *** Joins: smaragdus (~smaragdus@ )
[18:15:04] *** Quits: Anko (~Anko@ ) (Remote host closed the connection)
[18:26:35] -qtox-git-spam- [qTox] sudden6 pushed 2 new commits to master: https://git.io/vdtCq
[18:26:35] -qtox-git-spam- qTox/master b7ef73d Maxim Biro: fix(build): Fix regression in how cmake finds libraries
[18:26:35] -qtox-git-spam- qTox/master c81de4f sudden6: Merge pull request #4688...
[18:26:45] -qtox-git-spam- [qTox] sudden6 closed pull request #4688: fix(build): Fix regression in how cmake finds libraries (master...fix-cmake-library-detection) https://git.io/vdkks
[18:46:38] *** Joins: sudden6 (~anonymous@ )
[19:00:53] -qtox-git-spam- [qTox] Diadlo closed pull request #4543: [Refactor] Add own ChatForm in ContentDialog (master...refactor/ownChatForm) https://git.io/v7ZfQ
[19:22:02] *** Joins: Xeno_PL (~Xeno@ )
[19:34:05] *** Quits: LittleVulpix (~Miranda@ ) (Quit: Miranda NG rocks. Trust the Vulpix. http://miranda-ng.org/)
[19:48:44] *** Joins: LittleVulpix (~Miranda@ )
[19:53:25] *** Quits: cenysor (~cenysor@ ) (Remote host closed the connection)
[20:08:51] *** Quits: Amuza (~Amuza@ ) (Ping timeout: 252 seconds)
[20:39:56] *** Quits: sudden6 (~anonymous@ ) (Ping timeout: 240 seconds)
[20:44:35] *** Joins: sudden6 (~anonymous@ )
[20:50:13] -qtox-git-spam- [qTox] Diadlo pushed 7 new commits to master: https://git.io/vdt6l
[20:50:13] -qtox-git-spam- qTox/master 5b120c1 Diadlo: chore(warnings): Add -Werror flags
[20:50:13] -qtox-git-spam- qTox/master 026517d Diadlo: chore(warning): Fix compile warnings...
[20:50:13] -qtox-git-spam- qTox/master aa356bb Diadlo: fix(audio): Fix signed and unsigned comparation
[20:52:23] *** Quits: Xeno_PL (~Xeno@ ) (Read error: Connection reset by peer)
[21:12:25] *** Joins: Amuza (~Amuza@ )
[21:48:57] *** Joins: Xeno_PL (~Xeno@ )
[22:00:46] *** Quits: murray (~murray@ ) (Quit: Leaving)
[22:07:10] *** Joins: Achylles (~Achylles@ )
[22:17:48] *** Quits: lmposter (~lmposter@ ) (Read error: Connection reset by peer)
[22:24:14] *** Quits: Amuza (~Amuza@ ) (Quit: Leaving)
[23:12:58] *** Quits: sudden6 (~anonymous@ ) (Ping timeout: 240 seconds)
[23:19:34] *** Quits: Xeno_PL (~Xeno@ ) (Ping timeout: 248 seconds)
[23:42:14] *** Quits: Achylles (~Achylles@ ) (Ping timeout: 252 seconds)
