[01:47:42] *** Quits: dardevelin__ (~dardeveli@ ) (Ping timeout: 268 seconds)
[03:45:45] *** Quits: f10 (~flo@ ) (Ping timeout: 255 seconds)
[04:24:00] *** Joins: dardevelin__ (~dardeveli@ )
[04:26:04] *** Joins: dardevelin_ (~dardeveli@ )
[04:28:41] *** Quits: dardevelin__ (~dardeveli@ ) (Ping timeout: 240 seconds)
[07:04:44] *** Quits: cisc (~cisc@ ) (Ping timeout: 255 seconds)
[07:09:49] *** Joins: cisc (~cisc@ )
[07:43:21] *** Joins: sudden6 (~anonymous@ )
[07:48:22] *** Quits: sudden6 (~anonymous@ ) (Ping timeout: 246 seconds)
[07:51:54] *** Joins: sudden6 (~anonymous@ )
[08:44:40] *** Joins: VVD (~VVD@ )
[09:08:19] *** Quits: LittleVulpix (~Miranda@ ) (Quit: Miranda NG rocks. Trust the Vulpix. http://miranda-ng.org/)
[09:08:50] *** Joins: LittleVulpix (~Miranda@ )
[10:04:39] *** Quits: dardevelin_ (~dardeveli@ ) (Remote host closed the connection)
[10:04:59] *** Joins: dardevelin_ (~dardeveli@ )
[10:07:26] *** Quits: NeaN (~elouin@ ) (Ping timeout: 255 seconds)
[10:07:46] *** Joins: NeaN (~elouin@ )
[10:16:21] *** Quits: sudden6 (~anonymous@ ) (Ping timeout: 272 seconds)
[11:36:02] *** Joins: sudden6 (~anonymous@ )
[13:13:43] *** Quits: sudden6 (~anonymous@ ) (Ping timeout: 240 seconds)
[13:20:00] *** Joins: Achylles (~Achylles@ )
[13:20:32] *** Quits: dardevelin_ (~dardeveli@ ) (Ping timeout: 260 seconds)
[13:44:14] *** Quits: _Olaf (~quassel@ ) (Quit: _Olaf)
[13:44:39] *** Joins: _Olaf (~quassel@ )
[13:47:11] *** Joins: sudden6 (~anonymous@ )
[14:03:51] *** Joins: f10 (~flo@ )
[14:09:54] *** Joins: skyzohkey (~skyzohkey@ )
[14:10:24] *** Quits: skyzohkey (~skyzohkey@ ) (Client Quit)
[16:08:59] *** Quits: sudden6 (~anonymous@ ) (Ping timeout: 246 seconds)
[16:51:39] *** Joins: sudden6 (~anonymous@ )
[16:52:53] *** Quits: Achylles (~Achylles@ ) (Ping timeout: 255 seconds)
[17:14:41] *** Quits: sudden6 (~anonymous@ ) (Ping timeout: 240 seconds)
[17:39:34] *** Joins: dardevelin_ (~dardeveli@ )
[20:56:57] *** Joins: f15h (~thomas@ )
[22:13:46] *** Quits: f15h (~thomas@ ) (Quit: Konversation terminated!)
[22:16:53] *** Quits: VVD (~VVD@ ) ()
[22:23:44] *** Quits: linuxmodder- (linuxmodde@ ) (Quit: ZNC Active -- Leave a Msg --)
[22:51:43] *** Joins: puffy (~puffy@ )
[23:59:05] *** Quits: LittleVulpix (~Miranda@ ) (Read error: Connection reset by peer)
