[00:13:39] *** Joins: Chiitoo (~Chiitoo@ )
[00:26:19] *** Joins: dardevelin (~dardeveli@ )
[00:32:20] *** Quits: f10_ (~flo@ ) (Ping timeout: 268 seconds)
[01:00:54] *** Joins: linuxmodder (~linuxmodd@ )
[01:18:15] *** Quits: linuxmodder (~linuxmodd@ ) (Quit: Leaving)
[01:20:36] *** Joins: linuxmodder (~linuxmodd@ )
[01:43:38] *** Quits: Achylles (~Achylles@ ) (Remote host closed the connection)
[01:52:46] *** Joins: SSBN-731 (~Alabama@ )
[02:10:02] *** Quits: linuxmodder (~linuxmodd@ ) (Ping timeout: 240 seconds)
[02:23:19] *** Joins: linuxmodder (~linuxmodd@ )
[03:04:54] *** Quits: LittleVulpix (~Miranda@ ) (Ping timeout: 246 seconds)
[03:05:22] *** Quits: linuxmodder (~linuxmodd@ ) (Ping timeout: 240 seconds)
[03:33:05] <n3232323322> 'sup guys
[04:06:33] *** Joins: linuxmodder (~linuxmodd@ )
[04:06:33] *** Quits: linuxmodder (~linuxmodd@ ) (Changing host)
[04:06:33] *** Joins: linuxmodder (~linuxmodd@ )
[05:34:49] *** Quits: SSBN-731 (~Alabama@ ) (Read error: Connection reset by peer)
[05:36:21] *** Quits: linuxmodder (~linuxmodd@ ) (Ping timeout: 240 seconds)
[05:58:02] *** Joins: linuxmodder (~linuxmodd@ )
[07:42:45] *** Quits: splatree (~splatree@ ) (Read error: Connection reset by peer)
[07:43:55] *** Joins: splatree (~splatree@ )
[07:55:01] *** Joins: splatree_ (~splatree@ )
[07:58:00] *** Joins: rokups (uid197268@ )
[07:58:48] *** Quits: splatree (~splatree@ ) (Ping timeout: 268 seconds)
[08:01:41] *** Quits: linuxmodder (~linuxmodd@ ) (Ping timeout: 240 seconds)
[08:21:54] *** Joins: LittleVulpix (~Miranda@ )
[09:05:32] *** Quits: n3232323322 (~n32323233@ ) (Ping timeout: 246 seconds)
[09:19:59] *** Joins: georgios (~georgios@ )
[09:20:04] <georgios> good morning
[09:20:31] <georgios> you have told me a way to auto-login. could you remind me what that is please?
[09:23:39] <splatree_> tick "autostart" in general settings?
[09:24:30] <georgios> and the password?
[09:24:46] <georgios> it does autostart
[09:26:58] <zetok> georgios: https://github.com/qTox/qTox/wiki/FAQ#can-a-profile-be-automatically-loaded-if-its-password-protected
[09:28:17] <nurupo> you need to remove the password protection if you want a passwordless autostart
[09:32:10] *** Quits: splatree_ (~splatree@ ) (Quit: splatree_)
[09:32:31] *** Joins: splatree (~splatree@ )
[10:00:36] <georgios> so... how do i change password?
[10:00:49] <georgios> not via a new account please....
[10:11:44] *** Joins: f10_ (~flo@ )
[10:13:47] <splatree> click on your screename, scroll down, 'profile', 'set profile password'. georgios
[10:13:49] <zetok> georgios: https://github.com/qTox/qTox/blob/master/doc/user_manual_en.md#profile
[11:33:38] *** Joins: linuxmodder (~linuxmodd@ )
[11:45:34] *** Quits: linuxmodder (~linuxmodd@ ) (Read error: Connection reset by peer)
[11:45:56] *** Joins: linuxmodder (~linuxmodd@ )
[11:52:00] *** Quits: linuxmodder (~linuxmodd@ ) (Quit: Leaving)
[12:02:46] *** Joins: linuxmodder (~linuxmodd@ )
[12:20:24] *** Quits: f10_ (~flo@ ) (Ping timeout: 272 seconds)
[13:05:33] *** Quits: linuxmodder (~linuxmodd@ ) (Remote host closed the connection)
[13:06:34] *** Joins: linuxmodder (~linuxmodd@ )
[13:07:27] *** Quits: linuxmodder (~linuxmodd@ ) (Remote host closed the connection)
[13:07:53] *** Joins: linuxmodder (~linuxmodd@ )
[13:12:19] *** Quits: linuxmodder (~linuxmodd@ ) (Ping timeout: 240 seconds)
[13:20:10] *** Quits: dardevelin (~dardeveli@ ) (Remote host closed the connection)
[13:20:24] *** Joins: dardevelin (~dardeveli@ )
[13:25:49] *** Quits: dardevelin (~dardeveli@ ) (Ping timeout: 255 seconds)
[13:53:50] *** Quits: rokups (uid197268@ ) (Quit: Connection closed for inactivity)
[14:07:10] *** Joins: linuxmodder (~linuxmodd@ )
[14:07:56] *** Quits: linuxmodder (~linuxmodd@ ) (Remote host closed the connection)
[14:08:18] *** Joins: linuxmodder (~linuxmodd@ )
[14:08:18] *** Quits: linuxmodder (~linuxmodd@ ) (Changing host)
[14:08:18] *** Joins: linuxmodder (~linuxmodd@ )
[14:42:16] *** Joins: cenysor (~cenysor@ )
[15:47:31] *** Quits: linuxmodder (~linuxmodd@ ) (Remote host closed the connection)
[15:49:22] *** Joins: linuxmodder (~linuxmodd@ )
[15:54:23] *** Joins: linuxmodder_ (~linuxmodd@ )
[15:54:23] *** Quits: linuxmodder_ (~linuxmodd@ ) (Changing host)
[15:54:23] *** Joins: linuxmodder_ (~linuxmodd@ )
[15:56:38] *** Quits: linuxmodder (~linuxmodd@ ) (Ping timeout: 240 seconds)
[15:59:31] *** Quits: linuxmodder_ (~linuxmodd@ ) (Remote host closed the connection)
[16:03:23] *** Joins: linuxmodder (~linuxmodd@ )
[16:04:31] *** Quits: linuxmodder (~linuxmodd@ ) (Remote host closed the connection)
[16:10:49] *** Joins: linuxmodder (~linuxmodd@ )
[16:11:01] *** Quits: linuxmodder (~linuxmodd@ ) (Changing host)
[16:11:01] *** Joins: linuxmodder (~linuxmodd@ )
[16:17:31] *** Quits: linuxmodder (~linuxmodd@ ) (Remote host closed the connection)
[16:18:34] *** Joins: linuxmodder (~linuxmodd@ )
[16:19:26] *** Quits: linuxmodder (~linuxmodd@ ) (Remote host closed the connection)
[16:19:49] *** Joins: linuxmodder (~linuxmodd@ )
[16:25:01] *** Quits: linuxmodder (~linuxmodd@ ) (Remote host closed the connection)
[16:25:22] *** Joins: linuxmodder (~linuxmodd@ )
[16:31:58] *** Quits: linuxmodder (~linuxmodd@ ) (Ping timeout: 240 seconds)
[16:34:19] *** Joins: linuxmodder (~linuxmodd@ )
[16:45:42] *** Quits: e0f (~e0f@ ) (Ping timeout: 240 seconds)
[16:50:48] *** Joins: e0f (~e0f@ )
[17:09:54] *** Quits: e0f (~e0f@ ) (Changing host)
[17:09:54] *** Joins: e0f (~e0f@ )
[17:32:07] *** Quits: cenysor (~cenysor@ ) (Remote host closed the connection)
[17:39:47] *** Joins: cenysor (~cenysor@ )
[17:45:25] *** Quits: cenysor (~cenysor@ ) (Remote host closed the connection)
[18:47:29] *** Joins: guitarpicva (4b4b279c@ )
[18:48:03] *** Parts: guitarpicva (4b4b279c@ ) ()
[19:37:44] *** Joins: Achylles (~Achylles@ )
[19:41:05] *** Joins: linuxmodder_ (~linuxmodd@ )
[19:41:05] *** Quits: linuxmodder_ (~linuxmodd@ ) (Changing host)
[19:41:05] *** Joins: linuxmodder_ (~linuxmodd@ )
[19:43:37] *** Quits: linuxmodder (~linuxmodd@ ) (Ping timeout: 240 seconds)
[19:47:02] *** Quits: linuxmodder_ (~linuxmodd@ ) (Remote host closed the connection)
[20:26:10] *** Joins: f10_ (~flo@ )
[20:33:57] *** Quits: cisc (~cisc@ ) (Ping timeout: 240 seconds)
[21:21:11] *** Quits: LittleVulpix (~Miranda@ ) (Quit: Miranda NG rocks. Trust the Vulpix. http://miranda-ng.org/)
[21:22:55] *** Joins: LittleVulpix (~Miranda@ )
[21:42:04] *** Quits: LittleVulpix (~Miranda@ ) (Quit: Miranda NG rocks. Trust the Vulpix. http://miranda-ng.org/)
[21:45:52] *** Joins: LittleVulpix (~Miranda@ )
[23:13:58] *** Quits: Achylles (~Achylles@ ) (Quit: Leaving)
[23:15:47] *** Quits: georgios (~georgios@ ) (Quit: WeeChat 1.8)
[23:16:37] *** Joins: linuxmodder (~linuxmodd@ )
