[00:19:36] *** Quits: sudden6 (~anonymous@ ) (Ping timeout: 255 seconds)
[01:34:19] *** Joins: zetok (~zetok@ )
[01:43:51] *** Joins: zetok (~zetok@ )
[04:06:49] *** Quits: albel727 (~albel727@ ) (Quit: KVIrc 4.9.2 Aria http://www.kvirc.net/)
[06:05:27] *** Quits: Emcy (~MC@ ) (Ping timeout: 240 seconds)
[06:53:45] *** Quits: LittleVulpix (~Miranda@ ) (Quit: Miranda NG rocks. Trust the Vulpix. http://miranda-ng.org/)
[06:59:06] *** Joins: LittleVulpix (~Miranda@ )
[07:57:22] *** Joins: XenoPL (~Xeno@ )
[08:45:41] *** Joins: lmposter (~lmposter@ )
[09:10:43] *** Joins: f10 (~flo@ )
[09:49:37] *** Joins: sudden6 (~anonymous@ )
[09:51:06] -qtox-git-spam- [qTox] sudden6 pushed 1 new commit to master: https://git.io/vdajF
[09:51:06] -qtox-git-spam- qTox/master 2e7af82 sudden6: chore(travis): install correct version of ruby
[09:52:12] *** Joins: albel727 (~albel727@ )
[10:32:52] *** thot_slayer is now known as oranges
[10:34:43] *** Quits: sudden6 (~anonymous@ ) (Ping timeout: 255 seconds)
[10:46:05] *** Quits: f10 (~flo@ ) (Ping timeout: 246 seconds)
[11:07:40] *** Joins: Emcy (~MC@ )
[11:08:05] *** Joins: sudden6 (~anonymous@ )
[11:17:02] *** Joins: f10 (~flo@ )
[11:36:26] *** Quits: sudden6 (~anonymous@ ) (Ping timeout: 240 seconds)
[11:56:42] *** Joins: sudden6 (~anonymous@ )
[11:59:13] -qtox-git-spam- [qTox] sudden6 pushed 1 new commit to master: https://git.io/vdV3x
[11:59:13] -qtox-git-spam- qTox/master 1fc7fe2 sudden6: Merge pull request #4638...
[12:08:14] *** Quits: XenoPL (~Xeno@ ) (Ping timeout: 255 seconds)
[12:15:47] <oranges> https://www.oranges.net.nz/~oranges/webm/you_can_do_it_friendo.webm
[12:18:43] <Chiitoo> I'm not entirely sure that I trust this purple sock.
[13:01:28] *** Quits: lmposter (~lmposter@ ) (Read error: Connection reset by peer)
[13:17:19] *** Joins: lmposter (~lmposter@ )
[14:05:47] *** Quits: LittleVulpix (~Miranda@ ) (Quit: Miranda NG rocks. Trust the Vulpix. http://miranda-ng.org/)
[14:06:12] *** Joins: LittleVulpix (~Miranda@ )
[14:29:25] *** Quits: Emcy (~MC@ ) (Read error: Connection reset by peer)
[14:48:10] *** Joins: XenoPL (~Xeno@ )
[15:14:24] *** Joins: cenysor (~cenysor@ )
[15:58:03] *** Quits: sudden6 (~anonymous@ ) (Ping timeout: 248 seconds)
[16:10:25] *** Quits: cisc (~cisc@ ) (Ping timeout: 240 seconds)
[16:12:50] *** Joins: cisc (~cisc@ )
[16:44:19] *** Quits: rysiek|pl (~quassel@ ) (Quit: No Ping reply in 180 seconds.)
[16:44:36] *** Joins: rysiek|pl (~quassel@ )
[17:13:18] *** Joins: sudden6 (~anonymous@ )
[17:41:45] *** Quits: sudden6 (~anonymous@ ) (Ping timeout: 255 seconds)
[17:52:13] *** Joins: sudden6 (~anonymous@ )
[18:11:58] -qtox-git-spam- [qTox] sudden6 closed pull request #4721: chore(release): update version number (master...update_version) https://git.io/vd2je
[18:21:45] *** Joins: Emcy (~MC@ )
[18:22:20] *** Quits: LittleVulpix (~Miranda@ ) (Quit: Miranda NG rocks. Trust the Vulpix. http://miranda-ng.org/)
[18:26:36] *** Joins: LittleVulpix (~Miranda@ )
[18:30:02] *** Quits: sudden6 (~anonymous@ ) (Ping timeout: 248 seconds)
[18:56:10] *** Quits: cisc (~cisc@ ) (Ping timeout: 248 seconds)
[19:00:32] *** Joins: murray (~murray@ )
[19:16:44] *** Joins: cisc (~cisc@ )
[19:42:42] *** Quits: cenysor (~cenysor@ ) (Remote host closed the connection)
[19:47:04] *** Joins: cenysor (~cenysor@ )
[19:49:14] *** Quits: Emcy (~MC@ ) (Read error: Connection reset by peer)
[19:50:35] *** Joins: Emcy (~MC@ )
[20:13:29] *** Quits: cenysor (~cenysor@ ) (Remote host closed the connection)
[20:26:54] *** Quits: XenoPL (~Xeno@ ) (Ping timeout: 255 seconds)
[20:29:21] *** Joins: Mr_Keyser_Soze (~Mr_Keyser@ )
[20:34:24] *** Quits: Mr_Keyser_Soze (~Mr_Keyser@ ) (Ping timeout: 240 seconds)
[21:04:30] *** Quits: Emcy (~MC@ ) (Read error: Connection reset by peer)
[21:07:59] *** Joins: Emcy (~MC@ )
[21:10:56] *** Quits: Emcy (~MC@ ) (Read error: Connection reset by peer)
[21:11:47] *** Joins: Emcy (~MC@ )
[21:55:11] *** Quits: lmposter (~lmposter@ ) (Ping timeout: 260 seconds)
[22:43:41] *** Quits: murray (~murray@ ) (Quit: Leaving)
[23:24:58] *** Joins: sudden6 (~anonymous@ )
