[01:12:28] *** Quits: f10 (~flo@ ) (Ping timeout: 255 seconds)
[01:24:03] *** Joins: SSBN-731 (~Alabama@ )
[01:45:47] *** Quits: linuxmodder- (linuxmodde@ ) (Changing host)
[01:45:47] *** Joins: linuxmodder- (linuxmodde@ )
[01:45:47] *** Quits: linuxmodder (~linuxmodd@ ) (Changing host)
[01:45:47] *** Joins: linuxmodder (~linuxmodd@ )
[01:45:47] *** Quits: linuxmodder- (linuxmodde@ ) (Changing host)
[01:45:47] *** Joins: linuxmodder- (linuxmodde@ )
[02:49:26] *** Quits: linuxmodder (~linuxmodd@ ) (Ping timeout: 240 seconds)
[02:50:46] *** Quits: albel727 (~albel727@ ) (Ping timeout: 240 seconds)
[05:23:08] *** Joins: linuxmodder (~linuxmodd@ )
[05:24:09] *** Quits: linuxmodder (~linuxmodd@ ) (Remote host closed the connection)
[05:24:26] *** Joins: linuxmodder (~linuxmodd@ )
[05:59:14] *** Quits: cisc (~cisc@ ) (Ping timeout: 240 seconds)
[06:04:04] *** Joins: cisc (~cisc@ )
[07:01:14] *** Quits: Emcy_ (~MC@ ) (Ping timeout: 240 seconds)
[07:25:39] *** Joins: Emcy (~MC@ )
[07:27:25] *** Quits: linuxmodder (~linuxmodd@ ) (Ping timeout: 240 seconds)
[07:34:03] *** Quits: M6HZ (~M6HZ@ ) (Ping timeout: 240 seconds)
[07:39:34] *** Quits: igajsin (~ugoday@ ) (Ping timeout: 246 seconds)
[08:00:59] *** Joins: Emcy_ (~MC@ )
[08:00:59] *** Quits: Emcy_ (~MC@ ) (Changing host)
[08:00:59] *** Joins: Emcy_ (~MC@ )
[08:04:47] *** Quits: Emcy (~MC@ ) (Ping timeout: 260 seconds)
[08:22:13] *** Joins: M6HZ (~M6HZ@ )
[08:30:31] *** Quits: pcre (~quassel@ ) (Remote host closed the connection)
[08:44:30] *** Joins: pcre (~quassel@ )
[08:46:32] *** Joins: f10 (~flo@ )
[09:08:45] *** Quits: pcre (~quassel@ ) (Ping timeout: 240 seconds)
[09:09:23] *** Joins: pcre (~quassel@ )
[09:17:20] *** Joins: Emcy (~MC@ )
[09:18:34] *** Joins: albel727 (~albel727@ )
[09:20:02] *** Quits: Emcy_ (~MC@ ) (Ping timeout: 260 seconds)
[10:22:40] *** Quits: LittleVulpix (~Miranda@ ) (Quit: Miranda NG rocks. Trust the Vulpix. http://miranda-ng.org/)
[10:24:48] *** Joins: LittleVulpix (~Miranda@ )
[10:56:18] *** Joins: linuxmodder (~linuxmodd@ )
[10:58:59] *** Quits: linuxmodder (~linuxmodd@ ) (Remote host closed the connection)
[10:59:18] *** Joins: linuxmodder (~linuxmodd@ )
[11:09:02] *** Quits: cisc (~cisc@ ) (Ping timeout: 240 seconds)
[11:13:50] *** Joins: cisc (~cisc@ )
[11:19:02] *** Quits: pcre (~quassel@ ) (Ping timeout: 255 seconds)
[12:01:57] *** Quits: SSBN-731 (~Alabama@ ) (Read error: Connection reset by peer)
[12:07:26] -qtox-git-spam- [qTox] PKEv closed pull request #4428: fix(bootstrap): ignore qrencode certificate (master...fix_windows_bootstrap) https://git.io/vHCkX
[12:18:44] *** Quits: cisc (~cisc@ ) (Ping timeout: 240 seconds)
[12:23:31] *** Joins: cisc (~cisc@ )
[13:00:04] *** Quits: linuxmodder (~linuxmodd@ ) (Ping timeout: 240 seconds)
[13:20:08] *** Joins: sudden6 (~anonymous@ )
[13:53:48] *** Joins: linuxmodder (~linuxmodd@ )
[14:00:24] *** Quits: linuxmodder (~linuxmodd@ ) (Ping timeout: 240 seconds)
[14:39:07] *** Joins: linuxmodder (~linuxmodd@ )
[14:52:39] *** Quits: sudden6 (~anonymous@ ) (Ping timeout: 255 seconds)
[15:19:15] *** Joins: sudden6 (~anonymous@ )
[15:31:04] *** Quits: linuxmodder (~linuxmodd@ ) (Ping timeout: 240 seconds)
[16:10:49] *** Joins: Emcy_ (~MC@ )
[16:13:17] *** Quits: Emcy (~MC@ ) (Ping timeout: 255 seconds)
[16:17:01] <sudden6> zetok: I think your IRC logging isn't working anymore
[16:31:11] *** Joins: linuxmodder (~linuxmodd@ )
[16:31:52] *** Quits: sudden6 (~anonymous@ ) (Remote host closed the connection)
[16:45:04] *** Joins: murray (~murray@ )
[16:56:29] *** Joins: Emcy (~MC@ )
[16:56:29] *** Quits: Emcy (~MC@ ) (Changing host)
[16:56:29] *** Joins: Emcy (~MC@ )
[16:58:44] *** Quits: Emcy_ (~MC@ ) (Ping timeout: 268 seconds)
[17:03:07] *** Joins: Emcy_ (~MC@ )
[17:06:06] *** Quits: Emcy (~MC@ ) (Ping timeout: 260 seconds)
[18:12:52] *** Joins: pcre (~quassel@ )
[18:16:44] *** Quits: f10 (~flo@ ) (Read error: No route to host)
[18:29:43] *** Joins: f10 (~flo@ )
[18:40:44] *** Joins: igajsin (~ugoday@ )
[19:06:27] *** Quits: pcre (~quassel@ ) (Ping timeout: 255 seconds)
[19:10:41] *** Joins: pcre (~quassel@ )
[19:40:03] *** Quits: linuxmodder (~linuxmodd@ ) (Ping timeout: 240 seconds)
[20:24:12] *** Quits: cisc (~cisc@ ) (Quit: Konversation terminated!)
[20:30:56] <nurupo> zetok: you missed a day of logs
[20:31:09] <nurupo> 20170612
[20:39:53] *** Joins: cisc (~cisc@ )
[20:40:01] *** Quits: cisc (~cisc@ ) (Client Quit)
[20:40:40] *** Joins: cisc (~cisc@ )
[20:41:54] <zetok> nurupo: pushed
[20:42:07] <nurupo> thanks :)
[20:48:44] *** Quits: igajsin (~ugoday@ ) (Ping timeout: 268 seconds)
[21:04:27] *** Joins: igajsin (~ugoday@ )
[22:04:30] *** Quits: murray (~murray@ ) (Quit: Leaving)
[22:46:37] *** Quits: f10 (~flo@ ) (Ping timeout: 240 seconds)
[23:07:43] *** Quits: pcre (~quassel@ ) (Ping timeout: 246 seconds)
[23:17:44] *** Joins: pcre (~quassel@ )
