[00:40:49] *** Quits: cenysor (~cenysor@ ) (Remote host closed the connection)
[00:46:27] *** Quits: vindelschtuffen_ (~vindelsch@ ) (Remote host closed the connection)
[01:58:08] *** Quits: tWido (6de6379e@ ) (Quit: Page closed)
[02:31:31] *** Quits: iphy (uid67735@ ) (Quit: Connection closed for inactivity)
[02:50:41] *** Joins: vindelschtuffen (~vindelsch@ )
[08:13:42] *** Joins: dardevelin (~dardeveli@ )
[09:55:29] *** Joins: murray (~murray@ )
[10:02:09] *** Joins: f10_ (~flo@ )
[10:09:55] -qtox-git-spam- [qTox] tWido opened pull request #4489: feat(chatform): Export chat history to file (master...history_export-4143) https://git.io/vQO99
[10:15:13] *** Quits: dardevelin (~dardeveli@ ) (Ping timeout: 240 seconds)
[10:49:02] *** Joins: tWido (6de6379e@ )
[11:06:00] *** Joins: iphy (uid67735@ )
[11:34:30] *** Joins: cenysor (~cenysor@ )
[11:44:17] *** Quits: murray (~murray@ ) (Ping timeout: 255 seconds)
[11:44:32] *** Joins: pcre (~quassel@ )
[11:45:05] *** Quits: pcre (~quassel@ ) (Client Quit)
[11:46:13] *** Joins: pcre (~quassel@ )
[12:32:42] *** Quits: smaragdus (~omoo@ ) (Ping timeout: 240 seconds)
[12:36:24] <tWido> Diadlo: hello, i'm a bit confused in reviewable, could you help?
[12:38:14] <Diadlo> tWido, Hi
[12:38:26] <Diadlo> Of course
[12:39:52] <Diadlo> https://cs540109.userapi.com/c837222/v837222716/4872a/n-c7HP--hLI.jpg
[12:40:05] <tWido> Diadlo: now when i see a comment, i fix it, commit with ammend, mark comment as acknowledged
[12:40:27] <tWido> Diadlo: but that doesn't seem to be the right way
[12:40:36] <Diadlo> And finally click "publish"
[12:40:50] <Diadlo> Top right corner
[12:41:04] *** Joins: murray (~murray@ )
[12:41:19] <Diadlo> Oh.. no\
[12:41:46] <Diadlo> You should click small "Done" button, instead of "acknowledged"
[12:41:54] <Diadlo> In the future
[12:42:23] <Diadlo> "acknowledged" just hide the comment
[12:42:26] <zetok> tWido: https://github.com/qTox/qTox/blob/master/CONTRIBUTING.md#reviewing ← does that help?
[12:42:46] <Diadlo> zetok, Hello and thanks :)
[12:42:57] <zetok> \o
[12:43:44] <tWido> Diadlo: oh, that was it, thanks
[12:45:02] <tWido> zetok: yeah, thanks
[12:55:05] *** Quits: tWido (6de6379e@ ) (Quit: Page closed)
[12:55:51] *** Joins: smaragdus (~smaragdus@ )
[13:37:11] *** Quits: f10_ (~flo@ ) (Ping timeout: 240 seconds)
[13:47:50] *** Quits: VVD (~VVD@ ) (Ping timeout: 240 seconds)
[13:57:39] *** Joins: VVD (~VVD@ )
[13:59:12] *** Joins: linuxmodder (~linuxmodd@ )
[14:03:04] *** Joins: dardevelin (~dardeveli@ )
[14:03:34] *** linuxmodder is now known as linuxmodder__K4X
[14:03:46] *** linuxmodder__K4X is now known as linuxmod__K4XY
[14:05:24] *** Quits: linuxmod__K4XY (~linuxmodd@ ) (Excess Flood)
[14:07:20] *** Joins: linuxmod__K4XY (~linuxmodd@ )
[14:49:34] *** Quits: linuxmod__K4XY (~linuxmodd@ ) (Ping timeout: 240 seconds)
[15:22:47] *** Joins: linuxmodder (~linuxmodd@ )
[15:46:10] *** Quits: dardevelin (~dardeveli@ ) (Ping timeout: 258 seconds)
[15:49:14] *** Quits: linuxmodder (~linuxmodd@ ) (Ping timeout: 240 seconds)
[16:05:50] *** Joins: linuxmodder (~linuxmodd@ )
[16:36:34] *** Quits: linuxmodder (~linuxmodd@ ) (Ping timeout: 240 seconds)
[18:42:39] *** Joins: tWido (6de6379e@ )
[18:43:42] *** Joins: sudden6 (~anonymous@ )
[19:32:54] -qtox-git-spam- [qTox] Diadlo pushed 2 new commits to master: https://git.io/vQ3Oa
[19:32:54] -qtox-git-spam- qTox/master 5e4ab76 tWido: feat(chatform): Export chat history to file...
[19:32:54] -qtox-git-spam- qTox/master a7e17a4 Diadlo: Merge pull request #4489...
[19:52:38] *** Joins: M6HZ (~M6HZ@ )
[19:53:11] *** Joins: f10_ (~flo@ )
[19:55:31] *** Joins: linuxmodder (~linuxmodd@ )
[19:55:39] *** Quits: cisc (~cisc@ ) (Ping timeout: 246 seconds)
[20:00:37] *** Joins: cisc (~cisc@ )
[20:08:04] *** Joins: dardevelin (~dardeveli@ )
[20:28:33] *** Quits: linuxmodder (~linuxmodd@ ) (Ping timeout: 240 seconds)
[20:41:33] *** Quits: cenysor (~cenysor@ ) (Remote host closed the connection)
[21:06:23] -qtox-git-spam- [qTox] Diadlo pushed 2 new commits to master: https://git.io/vQ3nA
[21:06:23] -qtox-git-spam- qTox/master 31d35ec Diadlo: refactor: Remove Friend::getChatForm using
[21:06:23] -qtox-git-spam- qTox/master c667cf5 Diadlo: refactor(widget): Remove 'chatFormIsSet'...
[21:59:09] *** Quits: sudden6 (~anonymous@ ) (Ping timeout: 240 seconds)
[22:17:19] *** Joins: linuxmodder (~linuxmodd@ )
[22:19:51] *** Quits: dardevelin (~dardeveli@ ) (Ping timeout: 260 seconds)
[22:25:09] *** Quits: tWido (6de6379e@ ) (Quit: Page closed)
[22:25:35] *** Quits: murray (~murray@ ) (Quit: Leaving)
[22:26:09] *** Joins: dardevelin (~dardeveli@ )
[22:35:33] *** Quits: linuxmodder (~linuxmodd@ ) (Read error: Connection reset by peer)
[22:35:59] *** Joins: linuxmodder (~linuxmodd@ )
[22:45:29] *** Quits: linuxmodder (~linuxmodd@ ) (Read error: Connection reset by peer)
[22:45:59] *** Joins: linuxmodder (~linuxmodd@ )
[22:55:39] *** Quits: linuxmodder (~linuxmodd@ ) (Read error: Connection reset by peer)
[22:55:59] *** Joins: linuxmodder (~linuxmodd@ )
[23:17:40] *** Quits: linuxmodder (~linuxmodd@ ) (Read error: Connection reset by peer)
[23:17:59] *** Joins: linuxmodder (~linuxmodd@ )
[23:57:10] *** Quits: f10_ (~flo@ ) (Ping timeout: 240 seconds)
