[00:12:40] *** Quits: XenoPL (~Xeno@ ) (Ping timeout: 268 seconds)
[00:25:13] *** Quits: Achylles (~Achylles@ ) (Quit: Leaving)
[01:14:17] *** Quits: f10_ (~flo@ ) (Read error: Connection reset by peer)
[01:15:13] *** Joins: f10_ (~flo@ )
[01:41:26] *** Quits: f10_ (~flo@ ) (Read error: No route to host)
[01:42:08] *** Joins: f10_ (~flo@ )
[02:39:52] *** Quits: celadon (~celadon@ ) (Ping timeout: 248 seconds)
[02:40:24] *** Quits: mario (~mario@ ) (Ping timeout: 248 seconds)
[02:45:56] *** Joins: celadon (~celadon@ )
[02:48:29] *** Joins: _mario (~mario@ )
[02:48:29] *** Quits: _mario (~mario@ ) (Changing host)
[02:48:29] *** Joins: _mario (~mario@ )
[02:48:59] *** _mario is now known as mario
[03:03:10] *** Quits: gongzisun[m] (gongzisunm@ ) (Ping timeout: 250 seconds)
[03:03:36] *** Quits: SpEcHiDeR (spechidedi@ ) (Ping timeout: 250 seconds)
[03:04:48] *** Quits: Nolz[m] (nolzmatrix@ ) (Ping timeout: 240 seconds)
[03:05:05] *** Quits: herzmeister[m] (herzmeiste@ ) (Ping timeout: 255 seconds)
[03:45:07] *** Joins: zetok (~zetok@ )
[03:45:18] *** Quits: Emcy (~MC@ ) (Read error: Connection reset by peer)
[04:45:02] *** Quits: f10_ (~flo@ ) (Ping timeout: 252 seconds)
[05:26:36] *** Joins: Nolz[m] (nolzmatrix@ )
[05:32:27] *** Joins: SpEcHiDeR (spechidedi@ )
[05:32:27] *** Joins: herzmeister[m] (herzmeiste@ )
[05:32:34] *** Joins: gongzisun[m] (gongzisunm@ )
[06:03:26] *** Joins: Emcy (~MC@ )
[06:11:28] *** Quits: gongzisun[m] (gongzisunm@ ) (*.net *.split)
[06:11:29] *** Quits: Emcy_ (~MC@ ) (*.net *.split)
[06:11:29] *** Quits: Darky (~Darky@ ) (*.net *.split)
[06:20:27] *** Joins: gongzisun[m] (gongzisunm@ )
[07:22:44] *** Quits: RebelCoder (~Yuriy@ ) (Ping timeout: 240 seconds)
[07:27:30] *** Joins: RebelCoder (~RebelCode@ )
[08:13:56] *** Quits: cenysor (~cenysor@ ) (Remote host closed the connection)
[08:24:48] *** Joins: XenoPL (~Xeno@ )
[08:31:02] *** Joins: viomi (~viomi@ )
[08:35:13] *** Quits: RebelCoder (~RebelCode@ ) (Remote host closed the connection)
[10:02:57] *** Joins: cenysor (~cenysor@ )
[10:07:52] *** Joins: depate (~depate@ )
[10:14:19] *** Joins: sudden6 (~anonymous@ )
[10:38:12] *** Quits: cenysor (~cenysor@ ) (Remote host closed the connection)
[10:52:09] *** Quits: sudden6 (~anonymous@ ) (Ping timeout: 240 seconds)
[12:13:19] *** Joins: sudden6 (~anonymous@ )
[12:19:06] *** Joins: f10_ (~flo@ )
[12:23:49] *** Joins: LittleVulpix (~Miranda@ )
[13:01:48] *** Quits: Chiitoo (~Chiitoo@ ) (Quit: Sayonara sandwich!)
[13:40:28] *** Quits: sudden6 (~anonymous@ ) (Ping timeout: 268 seconds)
[13:40:37] *** Quits: f10_ (~flo@ ) (Ping timeout: 248 seconds)
[13:40:45] *** Joins: f10 (~flo@ )
[14:06:35] *** Joins: cenysor (~cenysor@ )
[14:14:08] *** Quits: f10 (~flo@ ) (Read error: No route to host)
[14:14:09] *** Joins: f10_ (~flo@ )
[15:44:30] *** Joins: sudden6 (~anonymous@ )
[16:25:35] *** Joins: f10 (~flo@ )
[16:25:58] *** Quits: f10_ (~flo@ ) (Ping timeout: 248 seconds)
[16:28:48] *** Quits: sudden6 (~anonymous@ ) (Ping timeout: 240 seconds)
[16:47:41] *** Joins: Mr_Keyser_Soze (~Mr_Keyser@ )
[16:48:57] *** Joins: murray (~murray@ )
[16:49:45] *** Joins: lmposter (~lmposter@ )
[16:57:24] *** Quits: f10 (~flo@ ) (Ping timeout: 248 seconds)
[16:59:33] *** Joins: f10 (~flo@ )
[17:00:33] *** Quits: f10 (~flo@ ) (Read error: Connection reset by peer)
[17:01:43] *** Joins: f10 (~flo@ )
[17:33:42] *** Quits: f10 (~flo@ ) (Ping timeout: 248 seconds)
[17:37:46] *** Joins: f10 (~flo@ )
[18:08:32] *** Joins: Chiitoo (~Chiitoo@ )
[18:40:33] *** Joins: Darky (~Darky@ )
[18:45:17] *** Joins: Kornik (~lmposter@ )
[18:48:10] *** Joins: f10_ (~flo@ )
[18:48:20] *** Quits: lmposter (~lmposter@ ) (Ping timeout: 248 seconds)
[18:48:52] *** Quits: f10 (~flo@ ) (Ping timeout: 248 seconds)
[18:57:16] *** Quits: murray (~murray@ ) (Quit: Leaving)
[19:05:11] *** Joins: murray (~murray@ )
[19:54:45] *** Joins: sudden6 (~anonymous@ )
[20:06:28] *** Quits: Mr_Keyser_Soze (~Mr_Keyser@ ) (Ping timeout: 268 seconds)
[20:17:18] -qtox-git-spam- [qTox] sudden6 pushed 2 new commits to master: https://git.io/vFgRT
[20:17:18] -qtox-git-spam- qTox/master 70b235f Jiachen Yang: fix: using current setting in autoaccept dialog...
[20:17:18] -qtox-git-spam- qTox/master 511b8af sudden6: Merge pull request #4779...
[20:36:10] *** Quits: f10_ (~flo@ ) (Remote host closed the connection)
[20:36:32] *** Joins: f10_ (~flo@ )
[20:57:29] *** Quits: depate (~depate@ ) (Remote host closed the connection)
[21:11:50] *** Joins: Mr_Keyser_Soze (~Mr_Keyser@ )
[22:04:39] *** Quits: murray (~murray@ ) (Quit: Leaving)
[22:08:42] *** Quits: Kornik (~lmposter@ ) (Read error: Connection reset by peer)
