[03:09:08] *** Quits: f10_ (~flo@ ) (Ping timeout: 260 seconds)
[05:11:51] *** Quits: VVD (~VVD@ ) (Read error: Connection reset by peer)
[05:12:22] *** Joins: VVD (~VVD@ )
[07:40:15] *** Joins: boobs_ (~uvygmv@ )
[07:40:17] <boobs_> PARTY TONIGHT MOTHER FUCKERS ROFL!!!
[07:40:17] <boobs_> q*u*i*c*k*t*a*l*k*e*h*6*7*6*t*e*.*o*n*i*o*n*/*6*6*9*7
[07:40:18] <boobs_> VVD Diadlo iphy Emcy cisc julmac smaragdus genesis LittleVulpix arza jmanfatty albel727 Chiitoo nurupo e0f ChanServ M6HZ oranges dan- krizoek zetok tux3 koshii dongo dante mario Nolz[m] SpEcHiDeR SpEcHiDe M-gdr GGMethos rysiek|pl Impyy r00tobo linxon hexadezimalion SocksPls robinli
[07:40:18] *** Parts: boobs_ (~uvygmv@ ) ()
[08:31:17] *** Joins: murray (~murray@ )
[08:58:22] *** Quits: cisc (~cisc@ ) (Remote host closed the connection)
[08:58:49] *** Joins: cisc (~cisc@ )
[09:04:49] *** Joins: lmposter (~lmposter@ )
[09:53:15] *** Quits: LittleVulpix (~Miranda@ ) (Quit: Miranda NG rocks. Trust the Vulpix. http://miranda-ng.org/)
[09:56:05] *** Joins: tWido (6de6379e@ )
[10:13:23] *** Joins: f10_ (~flo@ )
[10:22:07] *** Joins: sudden6 (~anonymous@ )
[10:30:53] *** Quits: cisc (~cisc@ ) (Ping timeout: 276 seconds)
[10:34:08] *** Quits: murray (~murray@ ) (Ping timeout: 276 seconds)
[10:35:12] *** Joins: cisc (~cisc@ )
[11:18:03] *** Quits: smaragdus (~smaragdus@ ) (Ping timeout: 260 seconds)
[11:24:22] *** Joins: Diadl0 (~Diadlos2@ )
[11:26:35] *** Joins: murray (~murray@ )
[11:26:46] *** Quits: Diadlo (~Diadlos2@ ) (Ping timeout: 268 seconds)
[11:45:13] <Chiitoo> Now that's a party.  :V
[12:23:13] *** Joins: sudd3n6 (~anonymous@ )
[12:36:24] *** Joins: smaragdus (~smaragdus@ )
[12:40:43] *** Quits: smaragdus (~smaragdus@ ) (Ping timeout: 248 seconds)
[12:57:08] *** Quits: sudden6 (~anonymous@ ) (Ping timeout: 240 seconds)
[13:31:20] *** Joins: LittleVulpix (~Miranda@ )
[13:49:07] *** Quits: f10_ (~flo@ ) (Ping timeout: 276 seconds)
[14:03:52] <nurupo> #freenode is partying every day like that
[14:04:17] <nurupo> don't join that channel if you mind mass-highlight name spam
[14:15:51] *** Quits: sudd3n6 (~anonymous@ ) (Ping timeout: 260 seconds)
[14:18:50] *** Quits: tWido (6de6379e@ ) (Quit: Page closed)
[14:35:05] *** Quits: murray (~murray@ ) (Ping timeout: 260 seconds)
[14:40:04] *** Joins: murray (~murray@ )
[14:43:03] *** Joins: Bill_MI (~Bill@ )
[15:27:31] *** Joins: Kornik (~lmposter@ )
[15:29:51] *** Joins: f10_ (~flo@ )
[15:30:30] *** Quits: lmposter (~lmposter@ ) (Ping timeout: 260 seconds)
[15:30:45] <VVD> just ban him
[15:41:12] *** Quits: Bill_MI (~Bill@ ) (Quit: Bye...)
[16:13:05] *** Quits: murray (~murray@ ) (Ping timeout: 260 seconds)
[16:45:32] *** Quits: Kornik (~lmposter@ ) (Quit: Leaving)
[17:05:36] *** Joins: murray (~murray@ )
[17:20:39] *** Joins: zetok (~zetok@ )
[17:35:37] *** Quits: koshii (~w@ ) (Ping timeout: 240 seconds)
[17:36:42] *** Quits: cisc (~cisc@ ) (Ping timeout: 248 seconds)
[17:44:44] *** Joins: koshii (~w@ )
[17:50:40] *** Joins: cisc (~cisc@ )
[19:31:11] *** Joins: Kornik (~lmposter@ )
[19:34:32] *** Quits: lmposter (~lmposter@ ) (Ping timeout: 255 seconds)
[19:34:56] *** Joins: lmposter (~lmposter@ )
[19:36:47] *** Quits: Kornik (~lmposter@ ) (Ping timeout: 255 seconds)
[19:48:48] *** Quits: f10_ (~flo@ ) (Remote host closed the connection)
[19:50:42] *** Joins: f10_ (~flo@ )
[19:55:18] *** Joins: Kornik (~lmposter@ )
[19:58:21] *** Quits: lmposter (~lmposter@ ) (Ping timeout: 260 seconds)
[20:00:01] *** Joins: lmposter (~lmposter@ )
[20:02:12] *** Quits: Kornik (~lmposter@ ) (Ping timeout: 276 seconds)
[20:17:34] *** Quits: lmposter (~lmposter@ ) (Read error: Connection reset by peer)
[20:17:42] *** Joins: lmposter (~lmposter@ )
[20:19:40] *** Quits: lmposter (~lmposter@ ) (Read error: Connection reset by peer)
[20:19:47] *** Joins: lmposter (~lmposter@ )
[20:27:14] *** Joins: Kornik (~lmposter@ )
[20:27:22] *** Quits: lmposter (~lmposter@ ) (Read error: Connection reset by peer)
[20:35:10] *** Quits: Kornik (~lmposter@ ) (Read error: Connection reset by peer)
[20:36:05] *** Joins: lmposter (~lmposter@ )
[20:41:01] *** Joins: sudd3n6 (~anonymous@ )
[20:43:33] *** Joins: sudden6 (~anonymous@ )
[20:47:06] *** Joins: cenysor (~cenysor@ )
[20:53:42] *** Joins: Kornik (~lmposter@ )
[20:56:51] *** Quits: lmposter (~lmposter@ ) (Ping timeout: 255 seconds)
[21:00:11] *** Quits: Kornik (~lmposter@ ) (Read error: Connection reset by peer)
[21:07:41] *** Joins: madgoat (~GK.1WM.SU@ )
[21:08:57] *** Parts: madgoat (~GK.1WM.SU@ ) ()
[21:55:49] *** Joins: Kornik (~lmposter@ )
[22:06:35] *** Joins: lmposter (~lmposter@ )
[22:08:53] *** Quits: lmposter (~lmposter@ ) (Read error: Connection reset by peer)
[22:09:01] *** Quits: Kornik (~lmposter@ ) (Ping timeout: 260 seconds)
[22:10:16] *** Joins: lmposter (~lmposter@ )
[22:16:46] *** Quits: lmposter (~lmposter@ ) (Read error: Connection reset by peer)
[22:17:14] *** Quits: VVD (~VVD@ ) (Ping timeout: 248 seconds)
[22:18:19] *** Quits: sudd3n6 (~anonymous@ ) (Remote host closed the connection)
[22:20:41] *** Quits: murray (~murray@ ) (Quit: Leaving)
[22:44:37] *** Joins: VVD (~VVD@ )
[23:18:52] *** Quits: cenysor (~cenysor@ ) (Remote host closed the connection)
[23:34:23] *** Quits: sudden6 (~anonymous@ ) (Ping timeout: 255 seconds)
