[00:17:49] *** Quits: f10_ (~flo@ ) (Ping timeout: 260 seconds)
[00:26:58] *** Joins: f10_ (~flo@ )
[00:39:27] *** Joins: bennabiy (~bennabiy@ )
[00:40:52] *** Joins: pcre (~quassel@ )
[00:42:12] *** Quits: pcre (~quassel@ ) (Remote host closed the connection)
[00:42:44] *** Joins: pcre (~quassel@ )
[01:40:03] *** Quits: f10_ (~flo@ ) (Ping timeout: 260 seconds)
[02:53:34] *** Joins: f10_ (~flo@ )
[02:55:05] *** Quits: cisc (~cisc@ ) (Ping timeout: 240 seconds)
[03:00:02] *** Joins: cisc (~cisc@ )
[03:18:20] *** Quits: f10_ (~flo@ ) (Ping timeout: 276 seconds)
[06:05:28] *** Quits: cisc (~cisc@ ) (Ping timeout: 260 seconds)
[06:09:10] *** Joins: cisc (~cisc@ )
[08:31:48] *** Joins: lmposter (~lmposter@ )
[08:37:07] *** Quits: lmposter (~lmposter@ ) (Ping timeout: 260 seconds)
[09:25:06] *** Joins: lmposter (~lmposter@ )
[09:25:37] *** Joins: murray (~murray@ )
[09:54:38] *** Joins: sudden6 (~anonymous@ )
[09:56:46] <oranges> allah is doing
[09:56:51] <oranges> onion man is not doing
[09:57:06] <sudden6> at least oranges is trying
[09:57:30] <oranges> thanks
[10:06:18] *** Joins: f10_ (~flo@ )
[10:18:58] *** Quits: cisc (~cisc@ ) (Remote host closed the connection)
[10:19:58] *** Joins: cisc (~cisc@ )
[10:27:20] *** Joins: tWido (6de6379e@ )
[10:58:46] *** Joins: rokups (uid197268@ )
[11:15:27] *** Quits: tWido (6de6379e@ ) (Quit: Page closed)
[11:17:23] *** Joins: sudd3n6 (~anonymous@ )
[12:50:52] *** Joins: cenysor (~cenysor@ )
[12:52:03] *** Quits: cenysor (~cenysor@ ) (Remote host closed the connection)
[12:52:27] *** Joins: cenysor (~cenysor@ )
[12:53:28] *** Quits: cenysor (~cenysor@ ) (Remote host closed the connection)
[12:53:53] *** Joins: cenysor (~cenysor@ )
[12:57:37] *** Quits: VVD (~VVD@ ) (Read error: Connection reset by peer)
[12:58:29] *** Joins: VVD (~VVD@ )
[13:29:40] *** Joins: linuxmodder (~linuxmodd@ )
[14:04:33] *** Quits: lmposter (~lmposter@ ) (Read error: Connection reset by peer)
[14:04:39] *** Joins: Kornik (~lmposter@ )
[15:08:26] *** Quits: rokups (uid197268@ ) (Quit: Connection closed for inactivity)
[15:19:32] *** Quits: linuxmodder (~linuxmodd@ ) (Quit: Leaving)
[15:22:06] *** Joins: linuxmodder (~linuxmodd@ )
[15:29:25] *** Joins: linuxmodder_ (~linuxmodd@ )
[15:29:30] *** Quits: linuxmodder (~linuxmodd@ ) (Read error: Connection reset by peer)
[15:31:41] *** linuxmodder_ is now known as linuxmodder
[16:14:31] *** Quits: cisc (~cisc@ ) (Quit: Konversation terminated!)
[16:16:44] *** Joins: cisc (~cisc@ )
[16:25:18] *** Quits: Kornik (~lmposter@ ) (Read error: Connection reset by peer)
[16:26:06] *** Joins: lmposter (~lmposter@ )
[16:51:37] *** Joins: Kornik (~lmposter@ )
[16:54:53] *** Quits: Kornik (~lmposter@ ) (Read error: Connection reset by peer)
[16:55:16] *** Quits: lmposter (~lmposter@ ) (Ping timeout: 268 seconds)
[16:55:43] *** Joins: lmposter (~lmposter@ )
[16:58:26] *** Quits: cenysor (~cenysor@ ) (Remote host closed the connection)
[17:32:22] *** Joins: linuxmodder_ (~linuxmodd@ )
[17:33:23] *** Quits: linuxmodder (~linuxmodd@ ) (Ping timeout: 240 seconds)
[17:36:15] *** Joins: LittleVulpix|Gho (~Miranda@ )
[17:38:31] *** Quits: LittleVulpix (~Miranda@ ) (Ping timeout: 240 seconds)
[17:51:02] *** Joins: Kornik (~lmposter@ )
[17:51:03] *** Quits: lmposter (~lmposter@ ) (Read error: Connection reset by peer)
[17:53:59] *** linuxmodder_ is now known as linuxmodder
[17:58:25] *** Quits: f10_ (~flo@ ) (Remote host closed the connection)
[17:59:26] *** Quits: Kornik (~lmposter@ ) (Read error: Connection reset by peer)
[17:59:51] *** Joins: lmposter (~lmposter@ )
[18:04:54] *** Quits: VVD (~VVD@ ) (Ping timeout: 248 seconds)
[18:13:47] *** Joins: f10 (~flo@ )
[18:18:36] *** Quits: f10 (~flo@ ) (Remote host closed the connection)
[18:27:47] *** Joins: f10 (~flo@ )
[18:38:13] *** Joins: Kornik (~lmposter@ )
[18:38:14] *** Quits: lmposter (~lmposter@ ) (Read error: Connection reset by peer)
[19:03:02] <nurupo> sudden6: noticed the last build got broken https://build.tox.chat/job/qTox-cmake_build_windows_x86-64_release/
[19:03:36] <nurupo> ah, it's a manually triggered build
[19:03:56] <sudden6> nurupo: yes I was playing around with cmake release types
[19:03:56] <nurupo> you should know then, didn't need to tell you
[19:04:13] <sudden6> somehow "minsizerel" triggered a compiler bug
[19:04:52] <sudden6> nurupo: do you have any idea why the qTox binary with cmake is ~80MB
[19:05:04] <sudden6> while it's much less for the qmake variant?
[19:05:27] <nurupo> "internal compiler error: in expand_expr_addr_expr_1, at expr.c:7669"
[19:05:37] <nurupo> googled exact match https://gcc.gnu.org/bugzilla/show_bug.cgi?id=61207
[19:05:48] <nurupo> different cpp file though, but surprisingly it's still Qt
[19:06:58] <nurupo> sudden6: does it run?
[19:07:06] <sudden6> not with wine
[19:07:13] <sudden6> didn't test with windows
[19:07:32] <sudden6> seems I have to start windows...
[19:07:40] *** Quits: sudd3n6 (~anonymous@ ) (Quit: Konversation terminated!)
[19:07:48] <nurupo> it's not a static build, is it?
[19:07:56] <sudden6> I don't think so
[19:07:57] <nurupo> i see dlls in the zip
[19:08:14] <sudden6> it's supposed to be a dynamic one
[19:11:44] <nurupo> did you try stripping it?
[19:11:58] <sudden6> no, how do I do that?
[19:12:28] <nurupo> x86_64-w64-mingw32-strip qtox.exe
[19:13:15] <nurupo> i will boot into windows and see if it runs, also will try to see what's in the binary that takes so much space, though not sure if my tools would work with 64-bit binaries
[19:13:32] <sudden6> it doesn't run
[19:13:45] <sudden6> it's missing some qt platform plugin
[19:15:42] *** Joins: bashrc (~motters@ )
[19:27:22] *** Quits: Kornik (~lmposter@ ) (Read error: Connection reset by peer)
[19:27:41] *** Joins: lmposter (~lmposter@ )
[19:30:58] <sudden6> nurupo: stripping the binary did the trick
[19:31:26] <sudden6> it's now only a few mb
[19:32:08] <nurupo> you can also strip dlls if you want
[19:33:30] <nurupo> just make sure that stripping them doesn't break things, and if it does, you could just find the problematic dll by trial and error and not strip it
[19:34:22] *** Quits: linuxmodder (~linuxmodd@ ) (Remote host closed the connection)
[19:34:24] *** Joins: linuxmodder_ (~linuxmodd@ )
[19:48:58] <nurupo> sorry, got distracted by #tox-dev
[19:49:06] * nurupo boots into windows
[19:51:52] <sudden6> nurupo: It works
[19:52:21] <sudden6> Only thing I need now is a zip option to make paths relative
[19:55:05] *** Joins: Kornik (~lmposter@ )
[19:58:08] *** Quits: Kornik (~lmposter@ ) (Read error: Connection reset by peer)
[19:58:20] *** Joins: Kornik (~lmposter@ )
[19:58:25] *** Quits: lmposter (~lmposter@ ) (Ping timeout: 260 seconds)
[20:07:55] <nurupo> uh, it's just a singe .exe in the .zip now
[20:08:04] <nurupo> it complains about missing openal32.dll
[20:08:16] <nurupo> it misses all the dlls, for obvious reason :P
[20:08:58] <sudden6> nurupo: yeah, I made a mistake while changing paths
[20:09:04] *** Quits: Kornik (~lmposter@ ) (Read error: Connection reset by peer)
[20:09:08] <sudden6> #56 should be working
[20:09:16] *** Joins: lmposter (~lmposter@ )
[20:09:20] <nurupo> sudden6: the easiest way to get the right relative paths is just to build the correct file tree in a dirctory and zip everything in that directory
[20:09:37] <sudden6> that's what I do now
[20:09:53] <nurupo> let's see, downloading
[20:10:33] <sudden6> IT WORKS!
[20:12:12] <sudden6> hmm, qTox.exe is missing it's shiny icon :/
[20:12:30] <nurupo> yep, it works
[20:12:36] <nurupo> the exe doesn't have the icon though
[20:12:41] <sudden6> lol
[20:12:49] <nurupo> it's just a generic program icon
[20:12:54] <nurupo> instead of qtox icon
[20:13:15] <sudden6> i wonder if it now runs in wine
[20:13:20] <nurupo> you probably need to add something to cmake in windowsonly clause to set the icon for the .exe
[20:13:38] *** Quits: lmposter (~lmposter@ ) (Read error: Connection reset by peer)
[20:15:25] <nurupo> you need to create a .rc file with contents:
[20:15:28] <nurupo> IDI_ICON1 ICON DISCARDABLE "Icon.ico"
[20:15:50] <nurupo> and add the path to it in the add_executable() in cmake
[20:16:29] <nurupo> e.g. add_executable(qtox $FOO $BAR "${CMAKE_CURRENT_SOURCE_DIR}/rc/Name.rc")
[20:16:35] *** Joins: lmposter (~lmposter@ )
[20:17:38] <sudden6> aha, qtox already has the rc file
[20:17:45] <sudden6> I'll add it to cmake
[20:18:04] <nurupo> you better let someone else with Windows to test the binary, i have things in $PATH that could make it run for me, while it actually might be missing a dll or something so it wouldn't run for someone else
[20:18:27] *** Joins: sudd3n6 (~anonymous@ )
[20:25:23] *** Joins: Kornik (~lmposter@ )
[20:27:07] *** Quits: lmposter (~lmposter@ ) (Ping timeout: 255 seconds)
[20:27:09] <nurupo> sudden6: sudden6: try running strip -s qtox.exe and strip -s *.dll
[20:27:24] <nurupo> by strip i mean x86_64-w64-mingw32-strip
[20:28:27] <nurupo> 4'5]3
[20:28:59] *** Quits: Kornik (~lmposter@ ) (Read error: Connection reset by peer)
[20:29:03] <nurupo> ignore the last message, something fell on keyboard :P
[20:31:39] <sudden6> :DD
[20:31:50] <sudden6> build with hopefully working icon is building
[20:35:10] *** Quits: sudd3n6 (~anonymous@ ) (Quit: Konversation terminated!)
[20:38:16] <sudden6> nurupo: we have an icon now
[20:38:21] <sudden6> thank you very much
[20:38:43] <sudden6> now I "just" need to mainline all the changes^^
[20:39:54] <nurupo> yep, just confirmed the icon
[20:40:16] <nurupo> could you try stripping all the things with -s argument?
[20:40:33] <nurupo> just curious how smaller the things will become
[20:40:47] *** Joins: sudd3n6 (~anonymous@ )
[20:41:28] <sudden6> just the qtox.exe or all libraries?
[20:43:27] <nurupo> if you are willing to make a debug build of qtox, i can help with getting gdb.exe and a helpful .bat scripts in the zip. scripts that would run qtox with gdb and automatically dump a backtrace into a text file that a user could add to gh issue in case qtox crashes
[20:43:40] <nurupo> sudden6: everything! :D
[20:44:45] <sudden6> ok, I'll try
[20:45:14] <sudden6> also feel free to copy the build config on jenkins and make a debug build
[20:46:35] <sudden6> #58 is with only qtox.exe and -s
[20:48:54] <nurupo> x86_64-w64-mingw32-strip -s *.dll
[20:49:02] <nurupo> x86_64-w64-mingw32-strip -s */*.dll
[20:50:01] <nurupo> i'm pretty sure libstdc++-6.dll can drop a couple megabytes. there is no need for it to be 8.7 mib
[20:50:10] <sudden6> #59 will be with these options
[20:50:20] <sudden6> can this break the libs?
[20:50:51] <nurupo> it's possible, but not very likely
[20:52:31] <sudden6> oh, this build is missing an important size relevant commit
[20:52:57] <nurupo> "size relevant commit"?
[20:52:59] <sudden6> will reduce qTox.exe about a few MB
[20:53:26] <sudden6> yeah, I didn't enable ressource compression
[21:00:48] <sudden6> nurupo: x86_64-w64-mingw32-strip: '*.dll': No such file
[21:00:51] <sudden6> why that?
[21:01:01] <sudden6> can't strip handle multiple files?
[21:01:23] <sudden6> wait
[21:01:29] <sudden6> I made a mistake
[21:07:18] <nurupo> lost 10mib when unzipped
[21:08:30] <nurupo> seems to run fine
[21:08:51] <nurupo> it's kind of weird though
[21:09:04] <nurupo> it finds 1 more profile than the qtox in which you fixed the icon
[21:09:43] <nurupo> maybe my antivirus is playing tricks
[21:10:25] <nurupo> libstdc++-6.dll went from 8700 kib to 900 kib
[21:10:58] <nurupo> seems like Qt libs were already stripped
[21:11:39] <nurupo> so it's just openal, compiler libs and openssl libs that reduced in size
[21:12:26] <nurupo> looks good, i'd keep that dll stripping
[21:14:10] <nurupo> it will take me forever to go over all my gists to find the debug scripts i had :\
[21:14:23] <nurupo> why doesn't github make a better search for own gists
[21:18:13] *** Joins: lmposter (~lmposter@ )
[21:38:22] *** Quits: linuxmodder_ (~linuxmodd@ ) (Ping timeout: 240 seconds)
[21:48:57] *** Joins: linuxmodder (~linuxmodd@ )
[22:18:53] *** Quits: lmposter (~lmposter@ ) (Read error: Connection reset by peer)
[22:19:18] *** Quits: murray (~murray@ ) (Quit: Leaving)
[22:27:07] -qtox-git-spam- [qTox] sudden6 opened pull request #4504: CMake Windows builds on Jenkins (master...for-jenkins-testing) https://git.io/vQELs
[23:06:28] *** Quits: sudd3n6 (~anonymous@ ) (Ping timeout: 276 seconds)
[23:09:17] *** Quits: pcre (~quassel@ ) (Read error: Connection reset by peer)
[23:10:10] <nurupo> it's kind of weird that you have to include openssl linking though
[23:10:46] <nurupo> i'm not sure what causes this exactly
[23:11:09] <nurupo> either qt or libsqlcipher
[23:41:22] *** Quits: linuxmodder (~linuxmodd@ ) (Ping timeout: 240 seconds)
[23:45:26] *** Quits: bashrc (~motters@ ) (Quit: Lost terminal)
[23:45:40] *** Quits: sudden6 (~anonymous@ ) (Ping timeout: 260 seconds)
